<?xml version="1.0" encoding="UTF-8"?>
<svg width="281px" height="153px" viewBox="0 0 281 153" version="1.1" xmlns="http://www.w3.org/2000/svg" xmlns:xlink="http://www.w3.org/1999/xlink">
    <!-- Generator: sketchtool 50.2 (55047) - http://www.bohemiancoding.com/sketch -->
    <title>57A48147-C0A8-4B12-BEE7-9AC64E12D709</title>
    <desc>Created with sketchtool.</desc>
    <defs>
        <linearGradient x1="50%" y1="0%" x2="50%" y2="82.0093272%" id="linearGradient-1">
            <stop stop-color="#EFFFF8" stop-opacity="0" offset="0%"></stop>
            <stop stop-color="#DBFFED" offset="100%"></stop>
        </linearGradient>
        <path d="M45.8949398,12.5493976 C47.2424096,12.7228916 47.693494,13.2549398 47.693494,14.5792771 C47.7607063,16.706044 47.2934393,18.8157046 46.3344578,20.7151807 C44.7897172,21.3849756 43.1789752,21.8908765 41.5286747,22.2245783 C40.2639602,24.5178121 38.4064717,26.4292277 36.1503614,27.7590361 L36.4742169,32.0385542 C35.2841952,32.3039605 34.0673511,32.4301086 32.8481928,32.4144578 C30.5696386,32.4144578 29.3783133,31.5412048 28.7363855,29.3898795 C26.175021,29.6230302 23.5970136,29.6055982 21.0390361,29.3378313 L21.2472289,32.0385542 C20.0533866,32.3045425 18.8326454,32.4306922 17.6096386,32.4144578 C14.3306024,32.4144578 13.6481928,30.2342169 12.8212048,27.753253 C8.47807229,25.3648193 5.81204819,20.5185542 5.81204819,14.9551807 C5.80980301,13.7538691 5.94760039,12.5563904 6.2226506,11.386988 C5.04997918,11.3364298 3.95698388,10.779382 3.22698795,9.86024096 C1.26650602,9.86024096 -3.81406197e-14,9.19518072 -3.81406197e-14,8.17156627 C-0.00273477588,7.76093234 0.219089482,7.38161286 0.578313253,7.1826506 C1.02366289,7.77668391 1.72707337,8.12086029 2.46939759,8.10795181 C2.12819277,6.11855422 3.19228916,4.26795181 5.01975904,4.26795181 C5.52545344,4.21299138 6.02979146,4.38272575 6.39935583,4.7322535 C6.76892021,5.08178125 6.96647494,5.57588521 6.93975904,6.08385542 C6.89752518,6.87262831 6.58743044,7.62338401 6.06072289,8.21204819 C5.21455176,7.71337689 4.79238398,6.7212826 5.01975904,5.76578313 C4.71325301,5.76578313 4.44144578,6.41927711 4.44144578,7.2 C4.42814805,7.82561235 4.67403465,8.42889747 5.12086834,8.86696971 C5.56770203,9.30504196 6.17573745,9.53893529 6.80096386,9.51325301 C9.16626506,3.46987952 15.4351807,-3.76823071e-15 23.9884337,0 C27.2974137,0.0697112604 30.5784055,0.623037655 33.7272289,1.64240964 C34.5455514,1.34175195 35.3818841,1.09259048 36.2313253,0.896385542 C37.7454869,0.622028144 39.2938954,0.592739206 40.8173494,0.809638554 C41.3806554,0.916598607 41.9066523,1.16764258 42.3440964,1.53831325 C41.2684337,2.82795181 41.7253012,4.36048193 39.7243373,6.2053012 C39.6803891,6.2874202 39.6142648,6.35554831 39.533494,6.40192771 C40.6091566,8.38554217 42.2226506,12.0115663 45.8949398,12.5493976 Z M32.0154217,6.05493976 L32.6978313,4.62650602 C30.1206206,3.45361875 27.3171726,2.861341 24.4857831,2.89156627 C21.6543937,2.861341 18.8509457,3.45361875 16.2737349,4.62650602 L16.9792771,6.05493976 C21.783034,4.01144641 27.2116648,4.01144641 32.0154217,6.05493976 Z M37.266506,13.9315663 L37.2549398,13.9315663 C38.1266202,13.9164558 38.8322662,13.2184521 38.8568675,12.346988 C38.8631671,12.0086707 38.7319465,11.6822714 38.4932242,11.4424591 C38.254502,11.2026468 37.9287039,11.0699405 37.5903614,11.0746988 C36.7231036,11.0927191 36.0217141,11.7864849 35.9942169,12.653494 C35.9846067,12.9943053 36.1153686,13.3241107 36.3559071,13.5657426 C36.5964456,13.8073744 36.9256546,13.9396307 37.266506,13.9315663 Z" id="path-2"></path>
    </defs>
    <g id="Symbols" stroke="none" stroke-width="1" fill="none" fill-rule="evenodd">
        <g id="Ilustración-cel">
            <g id="Group">
                <g id="Page-1">
                    <g id="Group-104" transform="translate(0.796875, 0.282851)">
                        <path d="M78.6669201,36.2050389 C77.883831,36.2050389 77.2463044,36.838179 77.2463044,37.6179217 C77.2463044,38.3967481 77.883831,39.0298882 78.6669201,39.0298882 C79.4500092,39.0298882 80.0875358,38.3967481 80.0875358,37.6179217 C80.0875358,36.838179 79.4500092,36.2050389 78.6669201,36.2050389 Z M78.6669201,39.9461546 C77.3762051,39.9461546 76.3250232,38.9016109 76.3250232,37.6179217 C76.3250232,36.3333162 77.3762051,35.2887725 78.6669201,35.2887725 C79.9585564,35.2887725 81.008817,36.3333162 81.008817,37.6179217 C81.008817,38.9016109 79.9585564,39.9461546 78.6669201,39.9461546 Z" id="Fill-4" fill="#512300"></path>
                        <path d="M189.650228,129.043891 L240.27121,129.043891 C246.608742,129.043891 251.746327,134.181397 251.746327,140.521946 C251.746327,146.8611 246.606777,152 240.27121,152 L142.260409,152 C135.922877,152 130.785292,146.862494 130.785292,140.521946 C130.785292,140.224865 130.79658,139.930421 130.818749,139.639018 L28.3714772,139.639018 C19.1033843,139.639018 11.5901106,132.130355 11.5901106,122.8634 C11.5901106,113.598482 19.0917463,106.087782 28.3714772,106.087782 L55.4393571,106.087782 C53.9364334,103.178574 53.0876922,99.8764058 53.0876922,96.3755821 C53.0876922,91.7625238 54.5633052,87.4937526 57.0676297,84.0146004 L16.8934227,84.0146004 C7.62532986,84.0146004 0.11205609,76.5059374 0.11205609,67.2389823 C0.11205609,57.9740642 7.61369179,50.4633642 16.8934227,50.4633642 L162.564925,50.4633642 C171.833018,50.4633642 179.346291,57.9720271 179.346291,67.2389823 C179.346291,70.1140255 178.623918,72.8201455 177.350203,75.1853277 L258.805541,75.1853277 C270.510917,75.1853277 280,84.6699546 280,96.3755821 C280,108.078636 270.502855,117.565837 258.805541,117.565837 L189.970688,117.565837 C190.524489,119.230952 190.824346,121.012089 190.824346,122.8634 C190.824346,125.046003 190.408031,127.131253 189.650228,129.043891 Z M101.648692,11.6145644 C101.648692,5.27540996 106.788242,0.136509929 113.123809,0.136509929 L211.13461,0.136509929 C217.472143,0.136509929 222.609728,5.27401616 222.609728,11.6145644 C222.609728,17.9537189 217.470177,23.0926189 211.13461,23.0926189 L113.123809,23.0926189 C106.786277,23.0926189 101.648692,17.9551127 101.648692,11.6145644 Z M149.326764,37.6609188 C149.326764,32.0532053 153.879358,27.5072552 159.485818,27.5072552 L245.118983,27.5072552 C250.729673,27.5072552 255.278037,32.0519723 255.278037,37.6609188 C255.278037,43.2686324 250.725443,47.8145824 245.118983,47.8145824 L159.485818,47.8145824 C153.875127,47.8145824 149.326764,43.2698653 149.326764,37.6609188 Z" id="BG" fill="url(#linearGradient-1)"></path>
                        <path d="M214.894012,102.30917 C214.110923,102.30917 213.473396,102.94231 213.473396,103.722052 C213.473396,104.500879 214.110923,105.134019 214.894012,105.134019 C215.677101,105.134019 216.314628,104.500879 216.314628,103.722052 C216.314628,102.94231 215.677101,102.30917 214.894012,102.30917 M214.894012,106.050285 C213.603297,106.050285 212.552115,105.005741 212.552115,103.722052 C212.552115,102.437447 213.603297,101.392903 214.894012,101.392903 C216.185648,101.392903 217.235909,102.437447 217.235909,103.722052 C217.235909,105.005741 216.185648,106.050285 214.894012,106.050285" id="Fill-6" fill="#512300"></path>
                        <path d="M200.07603,34.2224217 L201.236844,33.0679261 C201.417415,32.8883378 201.417415,32.5987977 201.236844,32.4201257 C201.057194,32.2405375 200.76607,32.2405375 200.585498,32.4201257 L199.424684,33.5746214 L198.26387,32.4201257 C198.083299,32.2405375 197.792174,32.2405375 197.612524,32.4201257 C197.431953,32.5987977 197.431953,32.8883378 197.612524,33.0679261 L198.773338,34.2224217 L197.612524,35.3769174 C197.431953,35.5565056 197.431953,35.8460458 197.612524,36.0247177 C197.701888,36.1145118 197.819812,36.1594089 197.937736,36.1594089 C198.05566,36.1594089 198.173584,36.1145118 198.26387,36.0247177 L199.424684,34.8702221 L200.585498,36.0247177 C200.675784,36.1145118 200.793708,36.1594089 200.911632,36.1594089 C201.029556,36.1594089 201.14748,36.1145118 201.236844,36.0247177 C201.417415,35.8460458 201.417415,35.5565056 201.236844,35.3769174 L200.07603,34.2224217 Z" id="Fill-8" fill="#512300"></path>
                        <path d="M50.6444901,87.2879899 L51.8053044,86.1334942 C51.9858756,85.953906 51.9858756,85.6643658 51.8053044,85.4856939 C51.6256546,85.3061057 51.3345297,85.3061057 51.1539586,85.4856939 L49.9931442,86.6401895 L48.8323298,85.4856939 C48.6517587,85.3061057 48.3606338,85.3061057 48.180984,85.4856939 C48.0004129,85.6643658 48.0004129,85.953906 48.180984,86.1334942 L49.3417984,87.2879899 L48.180984,88.4424855 C48.0004129,88.6220737 48.0004129,88.9116139 48.180984,89.0902859 C48.2703483,89.18008 48.3882723,89.224977 48.5061963,89.224977 C48.6241203,89.224977 48.7420443,89.18008 48.8323298,89.0902859 L49.9931442,87.9357902 L51.1539586,89.0902859 C51.2442441,89.18008 51.3621681,89.224977 51.4800921,89.224977 C51.5980161,89.224977 51.7159401,89.18008 51.8053044,89.0902859 C51.9858756,88.9116139 51.9858756,88.6220737 51.8053044,88.4424855 L50.6444901,87.2879899 Z" id="Fill-10" fill="#512300"></path>
                        <path d="M220.805782,92.0187649 L219.884501,92.0187649 C219.630227,92.0187649 219.42386,91.8135212 219.42386,91.5606317 C219.42386,91.3077422 219.630227,91.1024985 219.884501,91.1024985 L220.805782,91.1024985 C221.060055,91.1024985 221.266422,91.3077422 221.266422,91.5606317 C221.266422,91.8135212 221.060055,92.0187649 220.805782,92.0187649" id="Fill-12" fill="#512300"></path>
                        <path d="M224.467598,92.0187649 L222.637013,92.0187649 C222.381818,92.0187649 222.176372,91.8135212 222.176372,91.5606317 C222.176372,91.3077422 222.381818,91.1024985 222.637013,91.1024985 L224.467598,91.1024985 C224.721872,91.1024985 224.928239,91.3077422 224.928239,91.5606317 C224.928239,91.8135212 224.721872,92.0187649 224.467598,92.0187649 M228.129691,92.0187649 L226.298184,92.0187649 C226.043911,92.0187649 225.837544,91.8135212 225.837544,91.5606317 C225.837544,91.3077422 226.043911,91.1024985 226.298184,91.1024985 L228.129691,91.1024985 C228.383965,91.1024985 228.590332,91.3077422 228.590332,91.5606317 C228.590332,91.8135212 228.383965,92.0187649 228.129691,92.0187649 M231.789942,92.0187649 L229.959356,92.0187649 C229.705082,92.0187649 229.498715,91.8135212 229.498715,91.5606317 C229.498715,91.3077422 229.705082,91.1024985 229.959356,91.1024985 L231.789942,91.1024985 C232.045137,91.1024985 232.250582,91.3077422 232.250582,91.5606317 C232.250582,91.8135212 232.045137,92.0187649 231.789942,92.0187649 M235.452035,92.0187649 L233.621449,92.0187649 C233.366254,92.0187649 233.160808,91.8135212 233.160808,91.5606317 C233.160808,91.3077422 233.366254,91.1024985 233.621449,91.1024985 L235.452035,91.1024985 C235.706308,91.1024985 235.912675,91.3077422 235.912675,91.5606317 C235.912675,91.8135212 235.706308,92.0187649 235.452035,92.0187649 M239.113206,92.0187649 L237.282621,92.0187649 C237.028347,92.0187649 236.82198,91.8135212 236.82198,91.5606317 C236.82198,91.3077422 237.028347,91.1024985 237.282621,91.1024985 L239.113206,91.1024985 C239.368401,91.1024985 239.573847,91.3077422 239.573847,91.5606317 C239.573847,91.8135212 239.368401,92.0187649 239.113206,92.0187649 M242.775299,92.0187649 L240.944714,92.0187649 C240.689519,92.0187649 240.484073,91.8135212 240.484073,91.5606317 C240.484073,91.3077422 240.689519,91.1024985 240.944714,91.1024985 L242.775299,91.1024985 C243.029573,91.1024985 243.23594,91.3077422 243.23594,91.5606317 C243.23594,91.8135212 243.029573,92.0187649 242.775299,92.0187649" id="Fill-14" fill="#512300"></path>
                        <path d="M245.526614,92.0187649 L244.605332,92.0187649 C244.351059,92.0187649 244.144692,91.8135212 244.144692,91.5606317 C244.144692,91.3077422 244.351059,91.1024985 244.605332,91.1024985 L245.526614,91.1024985 C245.780887,91.1024985 245.987254,91.3077422 245.987254,91.5606317 C245.987254,91.8135212 245.780887,92.0187649 245.526614,92.0187649" id="Fill-16" fill="#512300"></path>
                        <path d="M41.010652,72.9123199 L40.0893708,72.9123199 C39.8350972,72.9123199 39.6287302,72.7070763 39.6287302,72.4541867 C39.6287302,72.2012972 39.8350972,71.9960535 40.0893708,71.9960535 L41.010652,71.9960535 C41.2649257,71.9960535 41.4712927,72.2012972 41.4712927,72.4541867 C41.4712927,72.7070763 41.2649257,72.9123199 41.010652,72.9123199" id="Fill-18" fill="#512300"></path>
                        <path d="M44.6723765,72.9123199 L42.8417906,72.9123199 C42.5865957,72.9123199 42.38115,72.7070763 42.38115,72.4541867 C42.38115,72.2012972 42.5865957,71.9960535 42.8417906,71.9960535 L44.6723765,71.9960535 C44.9266501,71.9960535 45.1330171,72.2012972 45.1330171,72.4541867 C45.1330171,72.7070763 44.9266501,72.9123199 44.6723765,72.9123199 M48.3335482,72.9123199 L46.5029623,72.9123199 C46.2477674,72.9123199 46.0423217,72.7070763 46.0423217,72.4541867 C46.0423217,72.2012972 46.2477674,71.9960535 46.5029623,71.9960535 L48.3335482,71.9960535 C48.5878218,71.9960535 48.7941888,72.2012972 48.7941888,72.4541867 C48.7941888,72.7070763 48.5878218,72.9123199 48.3335482,72.9123199 M51.9956411,72.9123199 L50.164134,72.9123199 C49.9098604,72.9123199 49.7034934,72.7070763 49.7034934,72.4541867 C49.7034934,72.2012972 49.9098604,71.9960535 50.164134,71.9960535 L51.9956411,71.9960535 C52.2499148,71.9960535 52.4562818,72.2012972 52.4562818,72.4541867 C52.4562818,72.7070763 52.2499148,72.9123199 51.9956411,72.9123199 M55.6568128,72.9123199 L53.826227,72.9123199 C53.5710321,72.9123199 53.3655864,72.7070763 53.3655864,72.4541867 C53.3655864,72.2012972 53.5710321,71.9960535 53.826227,71.9960535 L55.6568128,71.9960535 C55.9110865,71.9960535 56.1174535,72.2012972 56.1174535,72.4541867 C56.1174535,72.7070763 55.9110865,72.9123199 55.6568128,72.9123199 M59.3179845,72.9123199 L57.4873987,72.9123199 C57.233125,72.9123199 57.026758,72.7070763 57.026758,72.4541867 C57.026758,72.2012972 57.233125,71.9960535 57.4873987,71.9960535 L59.3179845,71.9960535 C59.5731794,71.9960535 59.7786251,72.2012972 59.7786251,72.4541867 C59.7786251,72.7070763 59.5731794,72.9123199 59.3179845,72.9123199 M62.9800775,72.9123199 L61.1485704,72.9123199 C60.8942967,72.9123199 60.6879297,72.7070763 60.6879297,72.4541867 C60.6879297,72.2012972 60.8942967,71.9960535 61.1485704,71.9960535 L62.9800775,71.9960535 C63.2343511,71.9960535 63.4407181,72.2012972 63.4407181,72.4541867 C63.4407181,72.7070763 63.2343511,72.9123199 62.9800775,72.9123199" id="Fill-20" fill="#512300"></path>
                        <path d="M35.3257018,100.241248 L35.6122203,99.956289 C35.7706807,99.7986912 35.7706807,99.5430529 35.6122203,99.3854551 C35.4537599,99.2278572 35.1976437,99.2278572 35.0391833,99.3854551 L34.7517436,99.6704139 L34.4652251,99.3854551 C34.3067648,99.2278572 34.0497273,99.2278572 33.8912669,99.3854551 C33.7328065,99.5430529 33.7328065,99.7986912 33.8912669,99.956289 L34.1787067,100.241248 L33.8912669,100.526207 C33.7328065,100.683805 33.7328065,100.939443 33.8912669,101.097041 C34.0497273,101.254639 34.3067648,101.254639 34.4652251,101.097041 L34.7517436,100.812082 L35.0391833,101.097041 C35.1976437,101.254639 35.4537599,101.254639 35.6122203,101.097041 C35.7706807,100.939443 35.7706807,100.683805 35.6122203,100.526207 L35.3257018,100.241248 Z" id="Fill-66" fill="#512300"></path>
                        <path d="M24.9131047,110.597166 L25.1996232,110.312207 C25.3580836,110.154609 25.3580836,109.898971 25.1996232,109.741373 C25.0411628,109.583775 24.7850466,109.583775 24.6265863,109.741373 L24.3391465,110.026332 L24.0526281,109.741373 C23.8941677,109.583775 23.6371302,109.583775 23.4786698,109.741373 C23.3202095,109.898971 23.3202095,110.154609 23.4786698,110.312207 L23.7661096,110.597166 L23.4786698,110.882124 C23.3202095,111.039722 23.3202095,111.295361 23.4786698,111.452958 C23.6371302,111.610556 23.8941677,111.610556 24.0526281,111.452958 L24.3391465,111.168 L24.6265863,111.452958 C24.7850466,111.610556 25.0411628,111.610556 25.1996232,111.452958 C25.3580836,111.295361 25.3580836,111.039722 25.1996232,110.882124 L24.9131047,110.597166 Z" id="Fill-68" fill="#512300"></path>
                        <path d="M30.421906,105.97112 C30.3260927,106.063663 30.2827925,106.197438 30.3049033,106.328464 L30.4716552,107.294208 C29.5227355,106.798508 29.5439249,106.792094 29.4103392,106.792094 C29.2767534,106.792094 29.2942577,106.800341 28.3490232,107.294208 L28.5157751,106.328464 C28.5378858,106.197438 28.4945856,106.063663 28.3987724,105.97112 L27.6930709,105.286669 L28.6687078,105.145564 C28.800451,105.126322 28.9146899,105.043858 28.9745731,104.924744 L29.4103392,104.046044 L29.8470265,104.924744 C29.9059885,105.043858 30.0202274,105.126322 30.1519706,105.145564 L31.1276074,105.286669 L30.421906,105.97112 Z M32.0581015,104.605883 L30.4799467,104.377733 L29.7742453,102.955687 C29.625919,102.656068 29.1956806,102.656068 29.0464331,102.955687 L28.3407316,104.377733 L26.7625769,104.605883 C26.4309156,104.653529 26.2973298,105.061267 26.5377842,105.293999 L27.680173,106.400849 L27.4102376,107.963999 C27.3540394,108.292939 27.7013624,108.544912 27.9989363,108.389147 L29.4103392,107.651552 L30.821742,108.389147 C31.1193159,108.544912 31.4675602,108.292939 31.4104408,107.963999 L31.1414266,106.400849 L32.2828941,105.293999 C32.5233485,105.061267 32.390684,104.653529 32.0581015,104.605883 L32.0581015,104.605883 Z" id="Fill-70" fill="#512300"></path>
                        <path d="M25.9621677,103.253932 C26.186039,103.253932 26.3675315,103.434436 26.3675315,103.657089 C26.3675315,103.880658 26.186039,104.061162 25.9621677,104.061162 C25.7382964,104.061162 25.556804,103.880658 25.556804,103.657089 C25.556804,103.434436 25.7382964,103.253932 25.9621677,103.253932" id="Fill-72" fill="#512300"></path>
                        <path d="M31.0332682,102.325937 C31.2571396,102.325937 31.438632,102.506442 31.438632,102.729094 C31.438632,102.952663 31.2571396,103.133168 31.0332682,103.133168 C30.8093969,103.133168 30.6279045,102.952663 30.6279045,102.729094 C30.6279045,102.506442 30.8093969,102.325937 31.0332682,102.325937" id="Fill-74" fill="#512300"></path>
                        <path d="M32.4531469,106.764148 C32.6770182,106.764148 32.8585106,106.944653 32.8585106,107.167306 C32.8585106,107.390875 32.6770182,107.571379 32.4531469,107.571379 C32.2292755,107.571379 32.0477831,107.390875 32.0477831,107.167306 C32.0477831,106.944653 32.2292755,106.764148 32.4531469,106.764148" id="Fill-76" fill="#512300"></path>
                        <path d="M170.616406,28.4201648 L109.700369,28.4201648 C109.522561,28.4201648 109.379763,28.2781435 109.379763,28.1022203 C109.379763,27.9262972 109.522561,27.7833596 109.700369,27.7833596 L170.616406,27.7833596 C170.792371,27.7833596 170.937012,27.9262972 170.937012,28.1022203 C170.937012,28.2781435 170.792371,28.4201648 170.616406,28.4201648" id="Fill-78" fill="#000000"></path>
                        <path d="M170.616406,118.234704 L109.700369,118.234704 C109.522561,118.234704 109.379763,118.091767 109.379763,117.915843 C109.379763,117.739004 109.522561,117.597899 109.700369,117.597899 L170.616406,117.597899 C170.792371,117.597899 170.937012,117.739004 170.937012,117.915843 C170.937012,118.091767 170.792371,118.234704 170.616406,118.234704" id="Fill-80" fill="#000000"></path>
                        <path d="M146.249162,126.312967 L134.066139,126.312967 C133.888331,126.312967 133.745533,126.170029 133.745533,125.99319 C133.745533,125.818183 133.888331,125.676162 134.066139,125.676162 L146.249162,125.676162 C146.426048,125.676162 146.569768,125.818183 146.569768,125.99319 C146.569768,126.170029 146.426048,126.312967 146.249162,126.312967" id="Fill-82" fill="#000000"></path>
                        <g id="Group-2" transform="translate(101.000000, 2.000000)">
                            <path d="M66.9979225,148.657675 L11.6897239,148.657675 C5.92724132,148.657675 1.23809524,143.981738 1.23809524,138.231815 L1.23809524,11.667526 C1.23809524,5.91874084 5.92724132,1.24166667 11.6897239,1.24166667 L66.9979225,1.24166667 C72.7626864,1.24166667 77.4518324,5.91874084 77.4518324,11.667526 L77.4518324,138.231815 C77.4518324,143.981738 72.7626864,148.657675 66.9979225,148.657675" id="Fill-84" fill="#FFFFFF"></path>
                            <path d="M75.6043096,137.81643 C75.6043096,142.972475 71.3987923,147.168303 66.2294394,147.168303 L10.9212408,147.168303 C5.75302848,147.168303 1.54751119,142.972475 1.54751119,137.81643 L1.54751119,11.2521409 C1.54751119,6.09723384 5.75302848,1.90368108 10.9212408,1.90368108 L66.2294394,1.90368108 C71.3987923,1.90368108 75.6043096,6.09723384 75.6043096,11.2521409 L75.6043096,137.81643 Z M66.2294394,0.542994948 L10.9212408,0.542994948 C5.00135072,0.542994948 0.184453642,5.34749123 0.184453642,11.2521409 L0.184453642,137.81643 C0.184453642,143.722218 5.00135072,148.527852 10.9212408,148.527852 L66.2294394,148.527852 C72.1516107,148.527852 76.9685078,143.722218 76.9685078,137.81643 L76.9685078,11.2521409 C76.9685078,5.34749123 72.1516107,0.542994948 66.2294394,0.542994948 L66.2294394,0.542994948 Z" id="Fill-86" fill="#512300"></path>
                            <path d="M38.577051,10.7154891 C37.4877456,10.7154891 36.6014731,9.83149814 36.6014731,8.74613479 C36.6014731,7.65963373 37.4877456,6.77564282 38.577051,6.77564282 C39.6652158,6.77564282 40.5503477,7.65963373 40.5503477,8.74613479 C40.5503477,9.83149814 39.6652158,10.7154891 38.577051,10.7154891 M38.577051,5.70051875 C36.8923347,5.70051875 35.5224334,7.06575567 35.5224334,8.74613479 C35.5224334,10.4253762 36.8923347,11.7906131 38.577051,11.7906131 C40.2606267,11.7906131 41.6293874,10.4253762 41.6293874,8.74613479 C41.6293874,7.06575567 40.2606267,5.70051875 38.577051,5.70051875" id="Fill-88" fill="#512300"></path>
                            <path d="M6.17255364,21.5649131 L6.17255364,120.864283 C6.17255364,121.614026 6.48166543,122.220419 6.86263717,122.220419 L69.4092986,122.220419 C69.7891297,122.220419 70.0982415,121.614026 70.0982415,120.864283 L70.0982415,21.5649131 L6.17255364,21.5649131 Z" id="Fill-90" fill="#CFF9FF"></path>
                            <polygon id="Fill-94" fill="#FFFFFF" points="18.9579193 25.9832749 21.5152206 25.9832749 21.5152206 25.1925752 18.9579193 25.1925752"></polygon>
                            <path d="M19.4399512,39.5268803 C16.6784765,40.3835665 15.9826898,41.0786996 15.1215112,43.8330651 C14.2637545,41.0786996 13.5656865,40.3835665 10.8053524,39.5268803 C13.5656865,38.6690564 14.2637545,37.9739233 15.1215112,35.2206955 C15.9826898,37.9739233 16.6784765,38.6690564 19.4399512,39.5268803" id="Fill-96" fill="#FFFFFF"></path>
                            <path d="M7.07789906,121.60886 L69.9256879,121.60886 L69.9256879,22.0762618 L7.07789906,22.0762618 L7.07789906,121.60886 Z M70.4652077,21 L6.53951985,21 C6.24181439,21 6,21.2411919 6,21.5381309 L6,122.148128 C6,122.442792 6.24181439,122.683984 6.53951985,122.683984 L70.4652077,122.683984 C70.7629132,122.683984 71.0047276,122.442792 71.0047276,122.148128 L71.0047276,21.5381309 C71.0047276,21.2411919 70.7629132,21 70.4652077,21 L70.4652077,21 Z" id="Fill-97" fill="#512300"></path>
                            <polygon id="Fill-98" fill="#FFFFFF" points="10.9244346 32.664972 14.160413 32.664972 14.160413 31.6637982 10.9244346 31.6637982"></polygon>
                            <polygon id="Fill-99" fill="#FFFFFF" points="17.3963915 32.664972 20.63237 32.664972 20.63237 31.6637982 17.3963915 31.6637982"></polygon>
                        </g>
                        <path d="M245.547848,141.566524 C245.452035,141.659066 245.408735,141.792841 245.430845,141.923867 L245.597597,142.889612 C244.648678,142.393912 244.669867,142.387498 244.536281,142.387498 C244.402695,142.387498 244.4202,142.395745 243.474965,142.889612 L243.641717,141.923867 C243.663828,141.792841 243.620528,141.659066 243.524714,141.566524 L242.819013,140.882073 L243.79465,140.740968 C243.926393,140.721726 244.040632,140.639262 244.100515,140.520147 L244.536281,139.641448 L244.972969,140.520147 C245.031931,140.639262 245.146169,140.721726 245.277913,140.740968 L246.253549,140.882073 L245.547848,141.566524 Z M247.184044,140.201287 L245.605889,139.973136 L244.900187,138.551091 C244.751861,138.251472 244.321623,138.251472 244.172375,138.551091 L243.466674,139.973136 L241.888519,140.201287 C241.556858,140.248932 241.423272,140.656671 241.663726,140.889403 L242.806115,141.996252 L242.53618,143.559403 C242.479981,143.888343 242.827304,144.140316 243.124878,143.984551 L244.536281,143.246956 L245.947684,143.984551 C246.245258,144.140316 246.593502,143.888343 246.536383,143.559403 L246.267369,141.996252 L247.408836,140.889403 C247.649291,140.656671 247.516626,140.248932 247.184044,140.201287 L247.184044,140.201287 Z" id="Fill-103" fill="#512300"></path>
                    </g>
                </g>
                <g id="logo-merqueo/nuevo-logo/marranito" transform="translate(117.000000, 55.000000)">
                    <g id="→-🖍️-color-logo">
                        <mask id="mask-3" fill="white">
                            <use xlink:href="#path-2"></use>
                        </mask>
                        <use id="forma-logo" fill="#D0006F" fill-rule="nonzero" xlink:href="#path-2"></use>
                    </g>
                </g>
            </g>
        </g>
    </g>
</svg>