<?xml version="1.0" encoding="utf-8"?>
<!-- Generator: Adobe Illustrator 22.1.0, SVG Export Plug-In . SVG Version: 6.00 Build 0)  -->
<svg version="1.1" id="Capa_1" xmlns="http://www.w3.org/2000/svg" xmlns:xlink="http://www.w3.org/1999/xlink" x="0px" y="0px"
	 viewBox="0 0 440 257" style="enable-background:new 0 0 440 257;" xml:space="preserve">
<style type="text/css">
	.st0{fill:#DEF8F9;}
	.st1{fill:#FFE197;}
	.st2{fill:#FFCD5C;}
	.st3{fill:#512300;}
	.st4{fill:#FFFFFF;}
	.st5{fill:#E5E5E5;}
	.st6{fill:#05344A;}
	.st7{filter:url(#Adobe_OpacityMaskFilter);}
	.st8{mask:url(#mask-2_1_);fill:#FFFCF0;}
	.st9{filter:url(#Adobe_OpacityMaskFilter_1_);}
	.st10{mask:url(#mask-2_2_);fill:#FF5555;}
	.st11{filter:url(#Adobe_OpacityMaskFilter_2_);}
	.st12{mask:url(#mask-2_3_);fill:#FFD008;}
	.st13{filter:url(#Adobe_OpacityMaskFilter_3_);}
	.st14{mask:url(#mask-2_4_);fill:#DDB300;}
	.st15{filter:url(#Adobe_OpacityMaskFilter_4_);}
	.st16{mask:url(#mask-2_5_);fill:#512300;}
	.st17{filter:url(#Adobe_OpacityMaskFilter_5_);}
	.st18{mask:url(#mask-2_6_);fill:#231100;}
	.st19{filter:url(#Adobe_OpacityMaskFilter_6_);}
	.st20{mask:url(#mask-2_7_);fill:#FF3E3E;}
	.st21{filter:url(#Adobe_OpacityMaskFilter_7_);}
	.st22{mask:url(#mask-2_8_);fill:#FF9999;}
	.st23{filter:url(#Adobe_OpacityMaskFilter_8_);}
	.st24{mask:url(#mask-2_9_);fill:#512300;}
	.st25{filter:url(#Adobe_OpacityMaskFilter_9_);}
	.st26{mask:url(#mask-2_10_);fill:#D7F7FF;}
	.st27{filter:url(#Adobe_OpacityMaskFilter_10_);}
	.st28{mask:url(#mask-2_11_);fill:#88E3FF;}
	.st29{filter:url(#Adobe_OpacityMaskFilter_11_);}
	.st30{mask:url(#mask-2_12_);fill:#00B7FF;}
	.st31{filter:url(#Adobe_OpacityMaskFilter_12_);}
	.st32{mask:url(#mask-2_13_);fill:#00B7FF;}
	.st33{filter:url(#Adobe_OpacityMaskFilter_13_);}
	.st34{mask:url(#mask-2_14_);fill:#512300;}
	.st35{filter:url(#Adobe_OpacityMaskFilter_14_);}
	.st36{mask:url(#mask-2_15_);fill:#FFBC00;}
	.st37{filter:url(#Adobe_OpacityMaskFilter_15_);}
	.st38{mask:url(#mask-2_16_);fill:#D39200;}
	.st39{filter:url(#Adobe_OpacityMaskFilter_16_);}
	.st40{mask:url(#mask-2_17_);fill:#512300;}
	.st41{filter:url(#Adobe_OpacityMaskFilter_17_);}
	.st42{mask:url(#mask-2_18_);fill:#563B00;}
	.st43{filter:url(#Adobe_OpacityMaskFilter_18_);}
	.st44{mask:url(#mask-2_19_);fill:#512300;}
	.st45{filter:url(#Adobe_OpacityMaskFilter_19_);}
	.st46{mask:url(#mask-2_20_);fill:#FFF6C0;}
	.st47{filter:url(#Adobe_OpacityMaskFilter_20_);}
	.st48{mask:url(#mask-2_21_);fill:#FFEE76;}
	.st49{filter:url(#Adobe_OpacityMaskFilter_21_);}
	.st50{mask:url(#mask-2_22_);fill:#512300;}
	.st51{filter:url(#Adobe_OpacityMaskFilter_22_);}
	.st52{mask:url(#mask-2_23_);fill:#FFCC88;}
	.st53{filter:url(#Adobe_OpacityMaskFilter_23_);}
	.st54{mask:url(#mask-2_24_);fill:#FFDDAB;}
	.st55{filter:url(#Adobe_OpacityMaskFilter_24_);}
	.st56{mask:url(#mask-2_25_);fill:#FFBB4D;}
	.st57{filter:url(#Adobe_OpacityMaskFilter_25_);}
	.st58{mask:url(#mask-2_26_);fill:#FFA300;}
	.st59{filter:url(#Adobe_OpacityMaskFilter_26_);}
	.st60{mask:url(#mask-2_27_);fill:#FECB8D;}
	.st61{filter:url(#Adobe_OpacityMaskFilter_27_);}
	.st62{mask:url(#mask-2_28_);fill:#512300;}
	.st63{filter:url(#Adobe_OpacityMaskFilter_28_);}
	.st64{mask:url(#mask-2_29_);fill:#512300;}
	.st65{filter:url(#Adobe_OpacityMaskFilter_29_);}
	.st66{mask:url(#mask-2_30_);fill:#512300;}
	.st67{filter:url(#Adobe_OpacityMaskFilter_30_);}
	.st68{mask:url(#mask-2_31_);fill:#D70F65;}
	.st69{filter:url(#Adobe_OpacityMaskFilter_31_);}
	.st70{mask:url(#mask-2_32_);fill:#910247;}
	.st71{filter:url(#Adobe_OpacityMaskFilter_32_);}
	.st72{mask:url(#mask-2_33_);fill:#910247;}
	.st73{filter:url(#Adobe_OpacityMaskFilter_33_);}
	.st74{mask:url(#mask-2_34_);fill:#512300;}
	.st75{filter:url(#Adobe_OpacityMaskFilter_34_);}
	.st76{mask:url(#mask-2_35_);fill:#FFD3B6;}
	.st77{filter:url(#Adobe_OpacityMaskFilter_35_);}
	.st78{mask:url(#mask-2_36_);fill:#FFB288;}
	.st79{filter:url(#Adobe_OpacityMaskFilter_36_);}
	.st80{mask:url(#mask-2_37_);fill:#4D290F;}
	.st81{filter:url(#Adobe_OpacityMaskFilter_37_);}
	.st82{mask:url(#mask-2_38_);fill:#512300;}
	.st83{filter:url(#Adobe_OpacityMaskFilter_38_);}
	.st84{mask:url(#mask-2_39_);fill:#512300;}
	.st85{filter:url(#Adobe_OpacityMaskFilter_39_);}
	.st86{mask:url(#mask-2_40_);fill:#512300;}
	.st87{filter:url(#Adobe_OpacityMaskFilter_40_);}
	.st88{mask:url(#mask-2_41_);fill:#512300;}
	.st89{filter:url(#Adobe_OpacityMaskFilter_41_);}
	.st90{mask:url(#mask-2_42_);fill:#512300;}
	.st91{filter:url(#Adobe_OpacityMaskFilter_42_);}
	.st92{mask:url(#mask-2_43_);fill:#512300;}
	.st93{filter:url(#Adobe_OpacityMaskFilter_43_);}
	.st94{mask:url(#mask-2_44_);fill:#512300;}
	.st95{filter:url(#Adobe_OpacityMaskFilter_44_);}
	.st96{mask:url(#mask-2_45_);fill:#512300;}
	.st97{filter:url(#Adobe_OpacityMaskFilter_45_);}
	.st98{mask:url(#mask-2_46_);fill:#512300;}
	.st99{filter:url(#Adobe_OpacityMaskFilter_46_);}
	.st100{mask:url(#mask-2_47_);fill:#512300;}
	.st101{filter:url(#Adobe_OpacityMaskFilter_47_);}
	.st102{mask:url(#mask-2_48_);fill:#512300;}
	.st103{filter:url(#Adobe_OpacityMaskFilter_48_);}
	.st104{mask:url(#mask-2_49_);fill:#512300;}
	.st105{filter:url(#Adobe_OpacityMaskFilter_49_);}
	.st106{mask:url(#mask-2_50_);fill:#512300;}
	.st107{filter:url(#Adobe_OpacityMaskFilter_50_);}
	.st108{mask:url(#mask-2_51_);fill:#512300;}
	.st109{filter:url(#Adobe_OpacityMaskFilter_51_);}
	.st110{mask:url(#mask-2_52_);fill:#512300;}
	.st111{filter:url(#Adobe_OpacityMaskFilter_52_);}
	.st112{mask:url(#mask-2_53_);fill:#512300;}
	.st113{filter:url(#Adobe_OpacityMaskFilter_53_);}
	.st114{mask:url(#mask-2_54_);fill:#512300;}
	.st115{filter:url(#Adobe_OpacityMaskFilter_54_);}
	.st116{mask:url(#mask-2_55_);fill:#512300;}
	.st117{filter:url(#Adobe_OpacityMaskFilter_55_);}
	.st118{mask:url(#mask-2_56_);fill:#512300;}
	.st119{filter:url(#Adobe_OpacityMaskFilter_56_);}
	.st120{mask:url(#mask-2_57_);fill:#512300;}
	.st121{filter:url(#Adobe_OpacityMaskFilter_57_);}
	.st122{mask:url(#mask-2_58_);fill:#512300;}
	.st123{filter:url(#Adobe_OpacityMaskFilter_58_);}
	.st124{mask:url(#mask-2_59_);fill:#512300;}
	.st125{filter:url(#Adobe_OpacityMaskFilter_59_);}
	.st126{mask:url(#mask-2_60_);fill:#512300;}
	.st127{filter:url(#Adobe_OpacityMaskFilter_60_);}
	.st128{mask:url(#mask-2_61_);fill:#512300;}
	.st129{filter:url(#Adobe_OpacityMaskFilter_61_);}
	.st130{mask:url(#mask-2_62_);fill:#512300;}
	.st131{filter:url(#Adobe_OpacityMaskFilter_62_);}
	.st132{mask:url(#mask-2_63_);fill:#512300;}
	.st133{filter:url(#Adobe_OpacityMaskFilter_63_);}
	.st134{mask:url(#mask-2_64_);fill:#512300;}
	.st135{filter:url(#Adobe_OpacityMaskFilter_64_);}
	.st136{mask:url(#mask-2_65_);fill:#512300;}
	.st137{filter:url(#Adobe_OpacityMaskFilter_65_);}
	.st138{mask:url(#mask-2_66_);fill:#512300;}
	.st139{filter:url(#Adobe_OpacityMaskFilter_66_);}
	.st140{mask:url(#mask-2_67_);fill:#512300;}
	.st141{filter:url(#Adobe_OpacityMaskFilter_67_);}
	.st142{mask:url(#mask-2_68_);fill:#512300;}
	.st143{filter:url(#Adobe_OpacityMaskFilter_68_);}
	.st144{mask:url(#mask-2_69_);fill:#512300;}
	.st145{filter:url(#Adobe_OpacityMaskFilter_69_);}
	.st146{mask:url(#mask-2_70_);fill:#512300;}
	.st147{filter:url(#Adobe_OpacityMaskFilter_70_);}
	.st148{mask:url(#mask-2_71_);fill:#512300;}
	.st149{filter:url(#Adobe_OpacityMaskFilter_71_);}
	.st150{mask:url(#mask-2_72_);fill:#512300;}
	.st151{filter:url(#Adobe_OpacityMaskFilter_72_);}
	.st152{mask:url(#mask-2_73_);fill:#512300;}
	.st153{filter:url(#Adobe_OpacityMaskFilter_73_);}
	.st154{mask:url(#mask-2_74_);fill:#512300;}
	.st155{filter:url(#Adobe_OpacityMaskFilter_74_);}
	.st156{mask:url(#mask-2_75_);fill:#512300;}
	.st157{filter:url(#Adobe_OpacityMaskFilter_75_);}
	.st158{mask:url(#mask-2_76_);fill:#512300;}
	.st159{filter:url(#Adobe_OpacityMaskFilter_76_);}
	.st160{mask:url(#mask-2_77_);fill:#512300;}
	.st161{filter:url(#Adobe_OpacityMaskFilter_77_);}
	.st162{mask:url(#mask-2_78_);fill:#512300;}
	.st163{filter:url(#Adobe_OpacityMaskFilter_78_);}
	.st164{mask:url(#mask-2_79_);fill:#512300;}
	.st165{filter:url(#Adobe_OpacityMaskFilter_79_);}
	.st166{mask:url(#mask-2_80_);fill:#512300;}
	.st167{filter:url(#Adobe_OpacityMaskFilter_80_);}
	.st168{mask:url(#mask-2_81_);fill:#512300;}
	.st169{filter:url(#Adobe_OpacityMaskFilter_81_);}
	.st170{mask:url(#mask-2_84_);fill:#D70F65;}
	.st171{filter:url(#Adobe_OpacityMaskFilter_82_);}
	.st172{mask:url(#mask-2_82_);fill:#910247;}
	.st173{filter:url(#Adobe_OpacityMaskFilter_83_);}
	.st174{mask:url(#mask-2_83_);}
	.st175{fill:#EF1373;}
</style>
<title>F6CBB184-17EF-4ED9-8904-AA6BDA5FB039</title>
<desc>Created with sketchtool.</desc>
<g id="Web-Junio2018-Nueva-Marca">
	<g id="checkout---newversion" transform="translate(-910.000000, -195.000000)">
		<g id="Ilustración" transform="translate(910.000000, 195.000000)">
			<g id="Page-1">
				<path id="Fill-1" class="st0" d="M397.6,235.1c0,2.2,1.8,4.1,4.1,4.1h27.2c-0.2,1.7-0.4,3.4-0.7,5.1h-42.6
					c-2.2,0-4.1,1.8-4.1,4.1c0,0,0,0.1,0,0.1L64.3,249c-0.1-4.4-3.7-8-8.1-8H2.9c-0.2-1.9-0.4-3.9-0.6-5.8h22.5
					c2.2,0,4.1-1.8,4.1-4.1c0-2.2-1.8-4.1-4.1-4.1H1.7c-0.2-4-0.4-8.1-0.4-12.2c0-24.2,4-47.4,11.3-69.1h35.2c4.5,0,8.1-3.7,8.1-8.1
					c0-4.5-3.7-8.1-8.1-8.1H18.9c1.1-2.5,2.2-5.1,3.4-7.5h44.1c4.5,0,8.1-3.7,8.1-8.1c0-4.5-3.7-8.1-8.1-8.1H31.1
					C68.4,42.4,137.1,0,215.7,0c86.4,0,160.8,51.1,194.8,124.8h-15.9c-4.5,0-8.1,3.7-8.1,8.1c0,4.5,3.7,8.1,8.1,8.1h22.6
					c0.9,2.5,1.8,5,2.6,7.5H376c-4.5,0-8.1,3.7-8.1,8.1c0,4.5,3.7,8.1,8.1,8.1h48.3c3.8,16,5.8,32.7,5.8,49.8
					c0,5.5-0.2,10.9-0.6,16.3h-27.9C399.4,231.1,397.6,232.9,397.6,235.1z"/>
				<path id="Fill-3" class="st1" d="M141.9,43.7c0,18.6-15.1,33.7-33.7,33.7c-18.6,0-33.7-15.1-33.7-33.7S89.6,9.9,108.2,9.9
					C126.8,9.9,141.9,25,141.9,43.7"/>
				<path id="Fill-5" class="st2" d="M142.4,43.7c0,18.6-15.1,33.7-33.7,33.7c0,0,8.6-2.8,19.7-13.9
					C139.2,52.7,142.4,43.7,142.4,43.7"/>
				<path id="Fill-7" class="st3" d="M108.2,10.8c-18.1,0-32.8,14.7-32.8,32.9c0,18.1,14.7,32.9,32.8,32.9
					c18.1,0,32.8-14.7,32.8-32.9C141,25.5,126.3,10.8,108.2,10.8 M108.2,78.2c-19,0-34.5-15.5-34.5-34.6S89.2,9.1,108.2,9.1
					s34.5,15.5,34.5,34.6S127.3,78.2,108.2,78.2"/>
				<path id="Fill-9" class="st4" d="M131.2,43.4c0,12.7-10.3,23-23,23s-23-10.3-23-23s10.3-23,23-23S131.2,30.7,131.2,43.4"/>
				<path id="Fill-11" class="st5" d="M131.7,42.7c0,13.4-10.9,24.3-24.3,24.3c0,0,6.2-2,14.2-10.1
					C129.4,49.2,131.7,42.7,131.7,42.7"/>
				<path id="Fill-13" class="st3" d="M96.7,102.1c-3.3,0-6,2.7-6,6v140.9c0,3.3,2.7,6,6,6h224.7c3.3,0,6-2.7,6-6V108.1
					c0-3.3-2.7-6-6-6H96.7z M321.5,256.7H96.7c-4.2,0-7.6-3.4-7.6-7.6V108.1c0-4.2,3.4-7.6,7.6-7.6h224.7c4.2,0,7.6,3.4,7.6,7.6
					v140.9C329.1,253.3,325.7,256.7,321.5,256.7L321.5,256.7z"/>
				<path id="Fill-15" class="st6" d="M96.7,102.1c-3.3,0-6,2.7-6,6v140.9c0,3.3,2.7,6,6,6h224.7c3.3,0,6-2.7,6-6V108.1
					c0-3.3-2.7-6-6-6H96.7z"/>
				<g id="Clip-18">
				</g>
				<defs>
					<filter id="Adobe_OpacityMaskFilter" filterUnits="userSpaceOnUse" x="100.8" y="111.9" width="217" height="136.5">
						<feColorMatrix  type="matrix" values="1 0 0 0 0  0 1 0 0 0  0 0 1 0 0  0 0 0 1 0"/>
					</filter>
				</defs>
				<mask maskUnits="userSpaceOnUse" x="100.8" y="111.9" width="217" height="136.5" id="mask-2_1_">
					<g class="st7">
						<polygon id="path-1_1_" class="st4" points="0,256.7 440,256.7 440,0 0,0 						"/>
					</g>
				</mask>
				<polygon id="Fill-17" class="st8" points="100.8,248.4 317.8,248.4 317.8,111.9 100.8,111.9 				"/>
				<defs>
					<filter id="Adobe_OpacityMaskFilter_1_" filterUnits="userSpaceOnUse" x="333.3" y="13.6" width="39" height="19.8">
						<feColorMatrix  type="matrix" values="1 0 0 0 0  0 1 0 0 0  0 0 1 0 0  0 0 0 1 0"/>
					</filter>
				</defs>
				<mask maskUnits="userSpaceOnUse" x="333.3" y="13.6" width="39" height="19.8" id="mask-2_2_">
					<g class="st9">
						<polygon id="path-1_2_" class="st4" points="0,256.7 440,256.7 440,0 0,0 						"/>
					</g>
				</mask>
				<polygon id="Fill-19" class="st10" points="336,13.6 333.3,20.6 335.8,21.5 369.5,33.5 372.3,26.5 				"/>
				<defs>
					<filter id="Adobe_OpacityMaskFilter_2_" filterUnits="userSpaceOnUse" x="316.4" y="49.9" width="48.8" height="22.7">
						<feColorMatrix  type="matrix" values="1 0 0 0 0  0 1 0 0 0  0 0 1 0 0  0 0 0 1 0"/>
					</filter>
				</defs>
				<mask maskUnits="userSpaceOnUse" x="316.4" y="49.9" width="48.8" height="22.7" id="mask-2_3_">
					<g class="st11">
						<polygon id="path-1_3_" class="st4" points="0,256.7 440,256.7 440,0 0,0 						"/>
					</g>
				</mask>
				<polygon id="Fill-20" class="st12" points="364.8,49.9 316.4,49.9 316.4,72.7 359.4,72.7 365.2,60.5 				"/>
				<defs>
					<filter id="Adobe_OpacityMaskFilter_3_" filterUnits="userSpaceOnUse" x="345" y="49.9" width="20.2" height="22.7">
						<feColorMatrix  type="matrix" values="1 0 0 0 0  0 1 0 0 0  0 0 1 0 0  0 0 0 1 0"/>
					</filter>
				</defs>
				<mask maskUnits="userSpaceOnUse" x="345" y="49.9" width="20.2" height="22.7" id="mask-2_4_">
					<g class="st13">
						<polygon id="path-1_4_" class="st4" points="0,256.7 440,256.7 440,0 0,0 						"/>
					</g>
				</mask>
				<polygon id="Fill-21" class="st14" points="345,72.7 359.4,72.7 365.2,60.5 364.8,49.9 352.8,49.9 				"/>
				<defs>
					<filter id="Adobe_OpacityMaskFilter_4_" filterUnits="userSpaceOnUse" x="314.8" y="12.8" width="58.4" height="60.7">
						<feColorMatrix  type="matrix" values="1 0 0 0 0  0 1 0 0 0  0 0 1 0 0  0 0 0 1 0"/>
					</filter>
				</defs>
				<mask maskUnits="userSpaceOnUse" x="314.8" y="12.8" width="58.4" height="60.7" id="mask-2_5_">
					<g class="st15">
						<polygon id="path-1_5_" class="st4" points="0,256.7 440,256.7 440,0 0,0 						"/>
					</g>
				</mask>
				<path id="Fill-22" class="st16" d="M369,32.4l-1.1-0.4h0l-23.9-8.5l-9.5-3.4l2.1-5.4L371.2,27L369,32.4z M367.8,60.4l-5.5,11.4
					h-1.5l5.2-10.9c0.1-0.1,0.1-0.3,0.1-0.4l-0.4-10.6c0-0.5-0.4-0.8-0.9-0.8h-47.5l0.2-7.3l18.6-19.3l30.7,10.9L367.8,60.4z
					 M317.2,71.8v-21H364l0.4,9.6l-5.5,11.4H317.2z M373.1,26.1c-0.1-0.2-0.3-0.4-0.5-0.5l-36.3-12.8c-0.4-0.2-0.9,0.1-1.1,0.5
					l-2.7,7c-0.1,0.2-0.1,0.5,0,0.7c0.1,0.2,0.3,0.4,0.5,0.5l1.3,0.4l-18.3,19c-0.1,0.2-0.2,0.4-0.2,0.6l-1,31.2
					c0,0.2,0.1,0.5,0.2,0.6c0.2,0.2,0.4,0.3,0.6,0.3h0.7h43h3.4c0.3,0,0.6-0.2,0.8-0.5l5.8-12.1c0.1-0.1,0.1-0.3,0.1-0.4l-1-26.5
					l0.7,0.3c0.1,0,0.2,0,0.3,0c0.3,0,0.7-0.2,0.8-0.5l2.8-7C373.2,26.6,373.2,26.3,373.1,26.1L373.1,26.1z"/>
				<defs>
					<filter id="Adobe_OpacityMaskFilter_5_" filterUnits="userSpaceOnUse" x="263.5" y="26.8" width="11.3" height="9.8">
						<feColorMatrix  type="matrix" values="1 0 0 0 0  0 1 0 0 0  0 0 1 0 0  0 0 0 1 0"/>
					</filter>
				</defs>
				<mask maskUnits="userSpaceOnUse" x="263.5" y="26.8" width="11.3" height="9.8" id="mask-2_6_">
					<g class="st17">
						<polygon id="path-1_6_" class="st4" points="0,256.7 440,256.7 440,0 0,0 						"/>
					</g>
				</mask>
				<path id="Fill-23" class="st18" d="M274.7,26.8v3.7c0,0-5.4-0.7-9.8,6.1l-1.4-0.7C263.5,35.9,266.9,28.2,274.7,26.8"/>
				<defs>
					<filter id="Adobe_OpacityMaskFilter_6_" filterUnits="userSpaceOnUse" x="234.3" y="29.4" width="49.8" height="46.6">
						<feColorMatrix  type="matrix" values="1 0 0 0 0  0 1 0 0 0  0 0 1 0 0  0 0 0 1 0"/>
					</filter>
				</defs>
				<mask maskUnits="userSpaceOnUse" x="234.3" y="29.4" width="49.8" height="46.6" id="mask-2_7_">
					<g class="st19">
						<polygon id="path-1_7_" class="st4" points="0,256.7 440,256.7 440,0 0,0 						"/>
					</g>
				</mask>
				<path id="Fill-24" class="st20" d="M254.5,30.3c0,0-5-2.6-10.5,1.1c-5.5,3.7-8.9,10.6-9.5,15.4c-0.6,4.8,0,11.2,0,11.2
					s-0.1,11.5,3.9,13.5c4,2,17.4,4.5,17.4,4.5h20.9l7.4-24.4c0,0-0.7-5.5-4.2-9.4c-3.6-3.9-6-3.7-10.2-4.2
					c-4.1-0.6-6.5-1.8-10.2-4.4C255.9,30.8,254.5,30.3,254.5,30.3"/>
				<defs>
					<filter id="Adobe_OpacityMaskFilter_7_" filterUnits="userSpaceOnUse" x="235" y="29.3" width="39.7" height="23.5">
						<feColorMatrix  type="matrix" values="1 0 0 0 0  0 1 0 0 0  0 0 1 0 0  0 0 0 1 0"/>
					</filter>
				</defs>
				<mask maskUnits="userSpaceOnUse" x="235" y="29.3" width="39.7" height="23.5" id="mask-2_8_">
					<g class="st21">
						<polygon id="path-1_8_" class="st4" points="0,256.7 440,256.7 440,0 0,0 						"/>
					</g>
				</mask>
				<path id="Fill-25" class="st22" d="M236,45.8c0,0,9.9,9.2,21.1,6.4c11.2-2.7,17.6-13.6,17.6-13.6s-10-1.7-13.7-4.2
					c-3.7-2.5-6.4-4.8-8.7-5c-2.7-0.3-6.2,0.1-10.5,3.7c-4.3,3.7-6.5,10-6.8,11.2L236,45.8z"/>
				<defs>
					<filter id="Adobe_OpacityMaskFilter_8_" filterUnits="userSpaceOnUse" x="233.6" y="26.1" width="51.2" height="50.5">
						<feColorMatrix  type="matrix" values="1 0 0 0 0  0 1 0 0 0  0 0 1 0 0  0 0 0 1 0"/>
					</filter>
				</defs>
				<mask maskUnits="userSpaceOnUse" x="233.6" y="26.1" width="51.2" height="50.5" id="mask-2_9_">
					<g class="st23">
						<polygon id="path-1_9_" class="st4" points="0,256.7 440,256.7 440,0 0,0 						"/>
					</g>
				</mask>
				<path id="Fill-26" class="st24" d="M276.2,75.3l-20.3,0c-0.1,0-13.4-2.5-17.2-4.4c-3-1.5-3.6-9.8-3.5-13c0-0.1-0.5-6.4,0-11
					c0.5-4.6,3.9-11.4,9.2-15c2.2-1.5,4.2-1.9,5.9-1.9c2.2,0,3.8,0.8,3.9,0.8c0,0,0,0,0,0c0,0,1.4,0.6,4.9,3.1c1.5,1,2.7,1.9,4,2.6
					c0,0,0,0,0,0l0.2,0.1c0.3,0.2,0.7,0.3,1,0.5l0.2,0.1c0,0,0,0,0.1,0c1.5,0.6,3,1,5,1.3c0.5,0.1,1,0.1,1.5,0.2
					c3.2,0.4,5.3,0.6,8.2,3.9c3.1,3.4,3.9,8.1,4.1,8.9L276.2,75.3z M274.1,27.6v2.2c-1.7,0-5.8,0.7-9.4,6l-0.3-0.1
					C265.3,33.9,268.4,29,274.1,27.6L274.1,27.6z M280.4,41.7c-3.3-3.6-5.7-3.9-9.1-4.3c-0.5-0.1-1-0.1-1.5-0.2
					c-1.5-0.2-2.7-0.5-3.9-0.9c4-5.6,8.5-5.2,8.7-5.1c0.2,0,0.4,0,0.5-0.2c0.1-0.1,0.2-0.3,0.2-0.5v-3.7c0-0.2-0.1-0.4-0.2-0.5
					c-0.2-0.1-0.4-0.2-0.6-0.1c-6.8,1.3-10.4,6.9-11.4,8.9c-1-0.6-2.1-1.3-3.3-2.1c-3.5-2.5-4.9-3.1-5.1-3.2
					c-0.4-0.2-5.5-2.6-11.2,1.2c-5.7,3.8-9.2,10.9-9.8,15.9c-0.6,4.8,0,11.1,0,11.3c0,1.2,0,12,4.3,14.1c4.1,2,17,4.4,17.7,4.5h20.9
					c0.3,0,0.6-0.2,0.6-0.5l7.4-24.4c0-0.1,0-0.2,0-0.3C284.7,51.2,284,45.7,280.4,41.7L280.4,41.7z"/>
				<defs>
					<filter id="Adobe_OpacityMaskFilter_9_" filterUnits="userSpaceOnUse" x="270.4" y="43.9" width="39.6" height="28.8">
						<feColorMatrix  type="matrix" values="1 0 0 0 0  0 1 0 0 0  0 0 1 0 0  0 0 0 1 0"/>
					</filter>
				</defs>
				<mask maskUnits="userSpaceOnUse" x="270.4" y="43.9" width="39.6" height="28.8" id="mask-2_10_">
					<g class="st25">
						<polygon id="path-1_10_" class="st4" points="0,256.7 440,256.7 440,0 0,0 						"/>
					</g>
				</mask>
				<polygon id="Fill-27" class="st26" points="280.6,43.9 310,52.8 303.5,72.7 270.4,72.7 				"/>
				<defs>
					<filter id="Adobe_OpacityMaskFilter_10_" filterUnits="userSpaceOnUse" x="281.1" y="36.4" width="42.9" height="16.4">
						<feColorMatrix  type="matrix" values="1 0 0 0 0  0 1 0 0 0  0 0 1 0 0  0 0 0 1 0"/>
					</filter>
				</defs>
				<mask maskUnits="userSpaceOnUse" x="281.1" y="36.4" width="42.9" height="16.4" id="mask-2_11_">
					<g class="st27">
						<polygon id="path-1_11_" class="st4" points="0,256.7 440,256.7 440,0 0,0 						"/>
					</g>
				</mask>
				<polygon id="Fill-28" class="st28" points="294.6,36.4 281.1,43.9 310.4,52.8 323.9,45.6 				"/>
				<defs>
					<filter id="Adobe_OpacityMaskFilter_11_" filterUnits="userSpaceOnUse" x="303.5" y="45.6" width="26.3" height="27.1">
						<feColorMatrix  type="matrix" values="1 0 0 0 0  0 1 0 0 0  0 0 1 0 0  0 0 0 1 0"/>
					</filter>
				</defs>
				<mask maskUnits="userSpaceOnUse" x="303.5" y="45.6" width="26.3" height="27.1" id="mask-2_12_">
					<g class="st29">
						<polygon id="path-1_12_" class="st4" points="0,256.7 440,256.7 440,0 0,0 						"/>
					</g>
				</mask>
				<polygon id="Fill-29" class="st30" points="303.5,72.7 310,52.8 323.5,45.6 329.9,59.3 325,72.7 				"/>
				<defs>
					<filter id="Adobe_OpacityMaskFilter_12_" filterUnits="userSpaceOnUse" x="294.2" y="27.2" width="32.5" height="18.4">
						<feColorMatrix  type="matrix" values="1 0 0 0 0  0 1 0 0 0  0 0 1 0 0  0 0 0 1 0"/>
					</filter>
				</defs>
				<mask maskUnits="userSpaceOnUse" x="294.2" y="27.2" width="32.5" height="18.4" id="mask-2_13_">
					<g class="st31">
						<polygon id="path-1_13_" class="st4" points="0,256.7 440,256.7 440,0 0,0 						"/>
					</g>
				</mask>
				<polygon id="Fill-30" class="st32" points="297.3,27.2 294.2,36.4 323.5,45.6 326.7,35.9 				"/>
				<defs>
					<filter id="Adobe_OpacityMaskFilter_13_" filterUnits="userSpaceOnUse" x="269.5" y="26.3" width="61.2" height="47.2">
						<feColorMatrix  type="matrix" values="1 0 0 0 0  0 1 0 0 0  0 0 1 0 0  0 0 0 1 0"/>
					</filter>
				</defs>
				<mask maskUnits="userSpaceOnUse" x="269.5" y="26.3" width="61.2" height="47.2" id="mask-2_14_">
					<g class="st33">
						<polygon id="path-1_14_" class="st4" points="0,256.7 440,256.7 440,0 0,0 						"/>
					</g>
				</mask>
				<path id="Fill-31" class="st34" d="M324.4,71.8h-19.7l5.9-18.4l12.4-6.7l5.9,12.5L324.4,71.8z M271.6,71.8l9.6-26.9l27.7,8.5
					l-5.9,18.4H271.6z M294.2,37.4l27,8.4l-11.4,6.1l-27.1-8.3L294.2,37.4z M297.8,28.2l27.8,8.2l-2.7,8.1l-27.7-8.6L297.8,28.2z
					 M330.7,58.9l-6.3-13.4l3.1-9.4c0.1-0.2,0.1-0.5-0.1-0.7c-0.1-0.2-0.3-0.4-0.5-0.4l-29.4-8.7c-0.4-0.1-0.9,0.1-1.1,0.5l-3,9
					l-13.2,7.3c-0.1,0.1-0.2,0.2-0.3,0.3c0,0,0,0,0,0.1c0,0,0,0,0,0.1l-10.2,28.8c-0.1,0.3-0.1,0.6,0.1,0.8c0.2,0.2,0.4,0.4,0.7,0.4
					H325c0.4,0,0.7-0.2,0.8-0.6l4.8-13.4C330.8,59.3,330.8,59.1,330.7,58.9L330.7,58.9z"/>
				<defs>
					<filter id="Adobe_OpacityMaskFilter_14_" filterUnits="userSpaceOnUse" x="244.9" y="52.8" width="45.3" height="19.8">
						<feColorMatrix  type="matrix" values="1 0 0 0 0  0 1 0 0 0  0 0 1 0 0  0 0 0 1 0"/>
					</filter>
				</defs>
				<mask maskUnits="userSpaceOnUse" x="244.9" y="52.8" width="45.3" height="19.8" id="mask-2_15_">
					<g class="st35">
						<polygon id="path-1_15_" class="st4" points="0,256.7 440,256.7 440,0 0,0 						"/>
					</g>
				</mask>
				<path id="Fill-32" class="st36" d="M244.9,55.6v17.1h45.3v-5.3c0,0-3.1-1.1-3.1-3.3c0-2.1,1.9-3.4,1.9-3.4l-0.6-7.8l-31.8,2.3
					c0,0-1.6,2.4-4,2.4s-3.4-2.1-3.4-2.1L244.9,55.6z"/>
				<defs>
					<filter id="Adobe_OpacityMaskFilter_15_" filterUnits="userSpaceOnUse" x="244.5" y="54.4" width="22.6" height="18.3">
						<feColorMatrix  type="matrix" values="1 0 0 0 0  0 1 0 0 0  0 0 1 0 0  0 0 0 1 0"/>
					</filter>
				</defs>
				<mask maskUnits="userSpaceOnUse" x="244.5" y="54.4" width="22.6" height="18.3" id="mask-2_16_">
					<g class="st37">
						<polygon id="path-1_16_" class="st4" points="0,256.7 440,256.7 440,0 0,0 						"/>
					</g>
				</mask>
				<path id="Fill-33" class="st38" d="M267.2,72.7l-0.9-18.3l-9.5,0.7c0,0-1.3,2.3-4.6,2.5c-3.3,0.2-3.4-2.1-3.4-2.1l-4.3,0.1v17.1
					H267.2z"/>
				<defs>
					<filter id="Adobe_OpacityMaskFilter_16_" filterUnits="userSpaceOnUse" x="244" y="52" width="47" height="21.5">
						<feColorMatrix  type="matrix" values="1 0 0 0 0  0 1 0 0 0  0 0 1 0 0  0 0 0 1 0"/>
					</filter>
				</defs>
				<mask maskUnits="userSpaceOnUse" x="244" y="52" width="47" height="21.5" id="mask-2_17_">
					<g class="st39">
						<polygon id="path-1_17_" class="st4" points="0,256.7 440,256.7 440,0 0,0 						"/>
					</g>
				</mask>
				<path id="Fill-34" class="st40" d="M289.3,71.8h-21l-0.8-16.6l20-1.4l0.5,6.5c-0.6,0.6-1.8,1.9-1.8,3.8c0,2.1,2.1,3.3,3.1,3.8
					V71.8z M245.7,71.8V56.4l2.8-0.1c0.1,0.4,0.4,0.8,0.8,1.2c0.8,0.7,1.8,1,3.2,0.9c0,0,0,0,0,0c0,0,0,0,0,0c0,0,0,0,0,0
					c0,0,0.1,0,0.1,0c0.3,0,0.6,0,0.8-0.1c2.3-0.4,3.5-1.7,4-2.4l6.4-0.5l1.8-0.1l0.8,16.5H245.7z M290.5,66.6c0,0-2.6-1-2.6-2.5
					c0-1.6,1.5-2.7,1.5-2.7c0.2-0.2,0.4-0.5,0.4-0.8l-0.6-7.8c0-0.5-0.5-0.8-0.9-0.8l-21.7,1.6l0,0l-4.3,0.3l-5.8,0.4
					c-0.3,0-0.5,0.2-0.7,0.4c0,0-1,1.5-2.5,1.9c-0.2,0-0.5,0.1-0.8,0.1c-1.8,0-2.6-1.6-2.6-1.6c0,0,0,0,0,0
					c-0.1-0.1-0.2-0.2-0.3-0.3c0,0-0.1-0.1-0.1-0.1c-0.1-0.1-0.3-0.1-0.4-0.1l-4.3,0.1c-0.5,0-0.8,0.4-0.8,0.9v17.1
					c0,0.5,0.4,0.9,0.9,0.9h22.6h22.6c0.5,0,0.9-0.4,0.9-0.9v-5.3C291,67,290.8,66.7,290.5,66.6L290.5,66.6z"/>
				<defs>
					<filter id="Adobe_OpacityMaskFilter_17_" filterUnits="userSpaceOnUse" x="254.9" y="61" width="6.3" height="6.3">
						<feColorMatrix  type="matrix" values="1 0 0 0 0  0 1 0 0 0  0 0 1 0 0  0 0 0 1 0"/>
					</filter>
				</defs>
				<mask maskUnits="userSpaceOnUse" x="254.9" y="61" width="6.3" height="6.3" id="mask-2_18_">
					<g class="st41">
						<polygon id="path-1_18_" class="st4" points="0,256.7 440,256.7 440,0 0,0 						"/>
					</g>
				</mask>
				<path id="Fill-35" class="st42" d="M258,67.2c-1.7,0-3.1-1.4-3.1-3.1c0-1.7,1.4-3.1,3.1-3.1s3.1,1.4,3.1,3.1
					C261.1,65.8,259.7,67.2,258,67.2"/>
				<defs>
					<filter id="Adobe_OpacityMaskFilter_18_" filterUnits="userSpaceOnUse" x="253.1" y="59.3" width="9.7" height="9.7">
						<feColorMatrix  type="matrix" values="1 0 0 0 0  0 1 0 0 0  0 0 1 0 0  0 0 0 1 0"/>
					</filter>
				</defs>
				<mask maskUnits="userSpaceOnUse" x="253.1" y="59.3" width="9.7" height="9.7" id="mask-2_19_">
					<g class="st43">
						<polygon id="path-1_19_" class="st4" points="0,256.7 440,256.7 440,0 0,0 						"/>
					</g>
				</mask>
				<path id="Fill-36" class="st44" d="M258,67.2c-1.7,0-3.1-1.4-3.1-3.1c0-1.7,1.4-3.1,3.1-3.1s3.1,1.4,3.1,3.1
					C261.1,65.8,259.7,67.2,258,67.2 M258,59.3c-2.7,0-4.8,2.2-4.8,4.8c0,2.7,2.2,4.8,4.8,4.8c2.7,0,4.8-2.2,4.8-4.8
					C262.8,61.4,260.7,59.3,258,59.3"/>
				<defs>
					<filter id="Adobe_OpacityMaskFilter_19_" filterUnits="userSpaceOnUse" x="197.5" y="25.3" width="49.3" height="47.8">
						<feColorMatrix  type="matrix" values="1 0 0 0 0  0 1 0 0 0  0 0 1 0 0  0 0 0 1 0"/>
					</filter>
				</defs>
				<mask maskUnits="userSpaceOnUse" x="197.5" y="25.3" width="49.3" height="47.8" id="mask-2_20_">
					<g class="st45">
						<polygon id="path-1_20_" class="st4" points="0,256.7 440,256.7 440,0 0,0 						"/>
					</g>
				</mask>
				<path id="Fill-37" class="st46" d="M204.2,72.7c0,0-11.2-29.5-4.6-41.8c8.6-15.8,31.6,2.7,47.1,42.2L204.2,72.7z"/>
				<defs>
					<filter id="Adobe_OpacityMaskFilter_20_" filterUnits="userSpaceOnUse" x="206.3" y="25.4" width="40.5" height="47.7">
						<feColorMatrix  type="matrix" values="1 0 0 0 0  0 1 0 0 0  0 0 1 0 0  0 0 0 1 0"/>
					</filter>
				</defs>
				<mask maskUnits="userSpaceOnUse" x="206.3" y="25.4" width="40.5" height="47.7" id="mask-2_21_">
					<g class="st47">
						<polygon id="path-1_21_" class="st4" points="0,256.7 440,256.7 440,0 0,0 						"/>
					</g>
				</mask>
				<path id="Fill-38" class="st48" d="M206.3,25.4c0,0,20.7,20.4,24,47.5l16.4,0.2c0,0-13-31.2-23.8-39.6
					C212.1,25,206.3,25.4,206.3,25.4"/>
				<defs>
					<filter id="Adobe_OpacityMaskFilter_21_" filterUnits="userSpaceOnUse" x="196.6" y="24.4" width="51" height="49.5">
						<feColorMatrix  type="matrix" values="1 0 0 0 0  0 1 0 0 0  0 0 1 0 0  0 0 0 1 0"/>
					</filter>
				</defs>
				<mask maskUnits="userSpaceOnUse" x="196.6" y="24.4" width="51" height="49.5" id="mask-2_22_">
					<g class="st49">
						<polygon id="path-1_22_" class="st4" points="0,256.7 440,256.7 440,0 0,0 						"/>
					</g>
				</mask>
				<path id="Fill-39" class="st50" d="M204.8,71.8c-1.5-4.1-10.3-29.6-4.4-40.5c2-3.6,4.8-5.4,8.3-5.2c5.2,0.3,12.5,5.3,20.1,15.3
					L214,47.3c-1.3,0.5-3.5,2.4-2.5,6c0.1,0.4,0.4,0.6,0.8,0.6c0.1,0,0.1,0,0.2,0c0.5-0.1,0.7-0.6,0.6-1c-0.8-3,1.2-3.9,1.5-4
					l15.1-6c2.1,2.8,4.1,6,6.2,9.6l-16,7.1c-1.2,0.6-3.1,2.6-1.9,6.2c0.1,0.4,0.5,0.6,0.8,0.6c0.1,0,0.2,0,0.3,0
					c0.4-0.1,0.7-0.6,0.5-1.1c-1-3,0.8-4,1-4.1l16.2-7.1c3,5.3,5.9,11.3,8.6,18.2L204.8,71.8z M247.5,72.8
					c-10.9-27.7-26.8-47.6-38.8-48.4c-4.2-0.3-7.6,1.8-9.9,6c-6.8,12.5,4,41.3,4.5,42.5c0.1,0.3,0.4,0.5,0.8,0.6l42.6,0.4h0
					c0.3,0,0.5-0.1,0.7-0.4C247.6,73.3,247.6,73,247.5,72.8L247.5,72.8z"/>
				<defs>
					<filter id="Adobe_OpacityMaskFilter_22_" filterUnits="userSpaceOnUse" x="203.2" y="72.7" width="160.6" height="156.4">
						<feColorMatrix  type="matrix" values="1 0 0 0 0  0 1 0 0 0  0 0 1 0 0  0 0 0 1 0"/>
					</filter>
				</defs>
				<mask maskUnits="userSpaceOnUse" x="203.2" y="72.7" width="160.6" height="156.4" id="mask-2_23_">
					<g class="st51">
						<polygon id="path-1_23_" class="st4" points="0,256.7 440,256.7 440,0 0,0 						"/>
					</g>
				</mask>
				<polygon id="Fill-40" class="st52" points="203.2,229.1 363.8,229.1 363.8,72.7 203.2,72.7 				"/>
				<defs>
					<filter id="Adobe_OpacityMaskFilter_23_" filterUnits="userSpaceOnUse" x="317.8" y="72.7" width="23.1" height="156.4">
						<feColorMatrix  type="matrix" values="1 0 0 0 0  0 1 0 0 0  0 0 1 0 0  0 0 0 1 0"/>
					</filter>
				</defs>
				<mask maskUnits="userSpaceOnUse" x="317.8" y="72.7" width="23.1" height="156.4" id="mask-2_24_">
					<g class="st53">
						<polygon id="path-1_24_" class="st4" points="0,256.7 440,256.7 440,0 0,0 						"/>
					</g>
				</mask>
				<polygon id="Fill-41" class="st54" points="340.9,72.7 317.8,72.7 317.8,229.1 340.9,209.3 				"/>
				<defs>
					<filter id="Adobe_OpacityMaskFilter_24_" filterUnits="userSpaceOnUse" x="340.9" y="72.7" width="22.9" height="156.4">
						<feColorMatrix  type="matrix" values="1 0 0 0 0  0 1 0 0 0  0 0 1 0 0  0 0 0 1 0"/>
					</filter>
				</defs>
				<mask maskUnits="userSpaceOnUse" x="340.9" y="72.7" width="22.9" height="156.4" id="mask-2_25_">
					<g class="st55">
						<polygon id="path-1_25_" class="st4" points="0,256.7 440,256.7 440,0 0,0 						"/>
					</g>
				</mask>
				<polygon id="Fill-42" class="st56" points="340.9,72.7 340.9,209.3 363.8,229.1 363.8,72.7 				"/>
				<defs>
					<filter id="Adobe_OpacityMaskFilter_25_" filterUnits="userSpaceOnUse" x="318.1" y="209.3" width="45.7" height="19.8">
						<feColorMatrix  type="matrix" values="1 0 0 0 0  0 1 0 0 0  0 0 1 0 0  0 0 0 1 0"/>
					</filter>
				</defs>
				<mask maskUnits="userSpaceOnUse" x="318.1" y="209.3" width="45.7" height="19.8" id="mask-2_26_">
					<g class="st57">
						<polygon id="path-1_26_" class="st4" points="0,256.7 440,256.7 440,0 0,0 						"/>
					</g>
				</mask>
				<polygon id="Fill-43" class="st58" points="340.9,209.3 318.1,229.1 363.8,229.1 				"/>
				<defs>
					<filter id="Adobe_OpacityMaskFilter_26_" filterUnits="userSpaceOnUse" x="202.3" y="71.8" width="162.3" height="158.1">
						<feColorMatrix  type="matrix" values="1 0 0 0 0  0 1 0 0 0  0 0 1 0 0  0 0 0 1 0"/>
					</filter>
				</defs>
				<mask maskUnits="userSpaceOnUse" x="202.3" y="71.8" width="162.3" height="158.1" id="mask-2_27_">
					<g class="st59">
						<polygon id="path-1_27_" class="st4" points="0,256.7 440,256.7 440,0 0,0 						"/>
					</g>
				</mask>
				<path id="Fill-44" class="st60" d="M362.9,227.2l-21.1-18.3V73.5h21.1V227.2z M320.4,228.2l20.6-17.8l20,17.4l0.5,0.5H320.4z
					 M318.9,73.5h21.1v135.4l-21.1,18.3V73.5z M204,228.2h113.2V73.5H204V228.2z M363.8,71.8h-22.9h-22.9H203.2
					c-0.5,0-0.9,0.4-0.9,0.9v156.4c0,0.5,0.4,0.9,0.9,0.9h114.9h45.7c0.1,0,0.2,0,0.3-0.1c0,0,0,0,0,0c0,0,0,0,0,0c0,0,0,0,0.1,0
					c0,0,0.1,0,0.1-0.1c0.1,0,0.1-0.1,0.2-0.2c0,0,0-0.1,0.1-0.1c0,0,0-0.1,0.1-0.1c0,0,0,0,0,0c0,0,0,0,0,0c0-0.1,0.1-0.2,0.1-0.3
					V72.7C364.6,72.2,364.2,71.8,363.8,71.8L363.8,71.8z"/>
				<defs>
					<filter id="Adobe_OpacityMaskFilter_27_" filterUnits="userSpaceOnUse" x="214" y="85.9" width="20.5" height="22.7">
						<feColorMatrix  type="matrix" values="1 0 0 0 0  0 1 0 0 0  0 0 1 0 0  0 0 0 1 0"/>
					</filter>
				</defs>
				<mask maskUnits="userSpaceOnUse" x="214" y="85.9" width="20.5" height="22.7" id="mask-2_28_">
					<g class="st61">
						<polygon id="path-1_28_" class="st4" points="0,256.7 440,256.7 440,0 0,0 						"/>
					</g>
				</mask>
				<path id="Fill-45" class="st62" d="M214.8,108.6c-0.5,0-0.9-0.4-0.9-0.9v-21c0-0.5,0.4-0.9,0.9-0.9h18.8c0.5,0,0.9,0.4,0.9,0.9
					s-0.4,0.9-0.9,0.9h-17.9v20.1C215.7,108.2,215.3,108.6,214.8,108.6"/>
				<defs>
					<filter id="Adobe_OpacityMaskFilter_28_" filterUnits="userSpaceOnUse" x="214" y="112.7" width="1.7" height="9.1">
						<feColorMatrix  type="matrix" values="1 0 0 0 0  0 1 0 0 0  0 0 1 0 0  0 0 0 1 0"/>
					</filter>
				</defs>
				<mask maskUnits="userSpaceOnUse" x="214" y="112.7" width="1.7" height="9.1" id="mask-2_29_">
					<g class="st63">
						<polygon id="path-1_29_" class="st4" points="0,256.7 440,256.7 440,0 0,0 						"/>
					</g>
				</mask>
				<path id="Fill-46" class="st64" d="M214.8,121.9c-0.5,0-0.9-0.4-0.9-0.9v-7.4c0-0.5,0.4-0.9,0.9-0.9s0.9,0.4,0.9,0.9v7.4
					C215.7,121.5,215.3,121.9,214.8,121.9"/>
				<defs>
					<filter id="Adobe_OpacityMaskFilter_29_" filterUnits="userSpaceOnUse" x="304" y="193.8" width="1.6" height="21.9">
						<feColorMatrix  type="matrix" values="1 0 0 0 0  0 1 0 0 0  0 0 1 0 0  0 0 0 1 0"/>
					</filter>
				</defs>
				<mask maskUnits="userSpaceOnUse" x="304" y="193.8" width="1.6" height="21.9" id="mask-2_30_">
					<g class="st65">
						<polygon id="path-1_30_" class="st4" points="0,256.7 440,256.7 440,0 0,0 						"/>
					</g>
				</mask>
				<path id="Fill-47" class="st66" d="M304.8,215.7c-0.5,0-0.8-0.4-0.8-0.8v-20.2c0-0.5,0.4-0.8,0.8-0.8c0.5,0,0.8,0.4,0.8,0.8
					v20.2C305.6,215.3,305.3,215.7,304.8,215.7"/>
				<defs>
					<filter id="Adobe_OpacityMaskFilter_30_" filterUnits="userSpaceOnUse" x="100.8" y="137.6" width="112.5" height="76.9">
						<feColorMatrix  type="matrix" values="1 0 0 0 0  0 1 0 0 0  0 0 1 0 0  0 0 0 1 0"/>
					</filter>
				</defs>
				<mask maskUnits="userSpaceOnUse" x="100.8" y="137.6" width="112.5" height="76.9" id="mask-2_31_">
					<g class="st67">
						<polygon id="path-1_31_" class="st4" points="0,256.7 440,256.7 440,0 0,0 						"/>
					</g>
				</mask>
				<polygon id="Fill-49" class="st68" points="202.9,169.1 202.9,137.6 100.8,137.6 100.8,169.1 100.8,214.5 213.3,214.5 
					213.3,169.1 				"/>
				<defs>
					<filter id="Adobe_OpacityMaskFilter_31_" filterUnits="userSpaceOnUse" x="101.1" y="194" width="112.2" height="20.5">
						<feColorMatrix  type="matrix" values="1 0 0 0 0  0 1 0 0 0  0 0 1 0 0  0 0 0 1 0"/>
					</filter>
				</defs>
				<mask maskUnits="userSpaceOnUse" x="101.1" y="194" width="112.2" height="20.5" id="mask-2_32_">
					<g class="st69">
						<polygon id="path-1_32_" class="st4" points="0,256.7 440,256.7 440,0 0,0 						"/>
					</g>
				</mask>
				<polygon id="Fill-50" class="st70" points="101.1,214.5 213.3,214.5 213.3,194 101.1,194 				"/>
				<defs>
					<filter id="Adobe_OpacityMaskFilter_32_" filterUnits="userSpaceOnUse" x="101.1" y="153.4" width="102.7" height="14.9">
						<feColorMatrix  type="matrix" values="1 0 0 0 0  0 1 0 0 0  0 0 1 0 0  0 0 0 1 0"/>
					</filter>
				</defs>
				<mask maskUnits="userSpaceOnUse" x="101.1" y="153.4" width="102.7" height="14.9" id="mask-2_33_">
					<g class="st71">
						<polygon id="path-1_33_" class="st4" points="0,256.7 440,256.7 440,0 0,0 						"/>
					</g>
				</mask>
				<polygon id="Fill-51" class="st72" points="101.1,168.3 203.7,168.3 203.7,153.4 101.1,153.4 				"/>
				<defs>
					<filter id="Adobe_OpacityMaskFilter_33_" filterUnits="userSpaceOnUse" x="212.4" y="144.9" width="91.5" height="67.4">
						<feColorMatrix  type="matrix" values="1 0 0 0 0  0 1 0 0 0  0 0 1 0 0  0 0 0 1 0"/>
					</filter>
				</defs>
				<mask maskUnits="userSpaceOnUse" x="212.4" y="144.9" width="91.5" height="67.4" id="mask-2_34_">
					<g class="st73">
						<polygon id="path-1_34_" class="st4" points="0,256.7 440,256.7 440,0 0,0 						"/>
					</g>
				</mask>
				<path id="Fill-52" class="st74" d="M222.2,209.4l64.7,1.2c0.4-0.2,2.2-1,2.2-3.8c0-2.7-0.9-4-1.3-4.4h-24.3v-1.7h31.8
					c0.5-0.1,2.9-0.9,2.9-4.1c0-3.1-1.4-4.2-1.8-4.4h-33v-1.7h36.6c0.6-0.4,2.2-1.8,2.2-4.5c0-2.7-1.9-3.7-2.4-3.9h-35.9v-1.7H295
					c0.5-0.6,1.8-2.2,1.8-4.4c0-2.3-2.1-3.6-2.7-4h-50.3l18.5-17.7c0.3-0.6,1.3-3.2-0.1-6.1c-0.3-0.7-0.8-1.2-1.4-1.4
					c-1.5-0.4-3.3,0.6-3.4,0.7c0,0-21.7,15.8-29.9,21.8c-7.8,5.7-9.2,9.7-9.2,9.7l-0.2,0.6l-4.1,0v26.2h4.3v0.9
					c0,0.8,0.2,1.4,0.7,1.8C220.2,209.4,222.2,209.4,222.2,209.4L222.2,209.4z M287.2,212.3l-0.1,0l-64.8-1.2c-0.1,0-2.7,0-4.3-1.5
					c-0.6-0.6-1-1.3-1.1-2.2h-4.3v-29.6h4.7c0.7-1.4,2.9-5.1,9.6-10c8.2-6,30-21.8,30-21.8c0.2-0.1,2.6-1.5,4.8-0.9
					c1.1,0.3,1.9,1.1,2.5,2.3c1.9,4,0.1,7.6,0,7.7l-0.2,0.2l-15.5,14.9h46.4l0.2,0.1c0.2,0.1,3.8,1.9,3.8,5.6c0,1.9-0.7,3.4-1.4,4.4
					l3,0c0.1,0,3.6,1.3,3.6,5.6c0,4.2-3.1,6-3.3,6.1l-0.2,0.1h-1.7c0.6,0.9,1.2,2.3,1.2,4.4c0,3.9-2.8,5.5-4.3,5.8l-5.7,0
					c0.5,0.9,1,2.4,1,4.4c0,3.7-2.3,5.2-3.5,5.5L287.2,212.3z"/>
				<defs>
					<filter id="Adobe_OpacityMaskFilter_34_" filterUnits="userSpaceOnUse" x="214.1" y="146.6" width="88.1" height="64">
						<feColorMatrix  type="matrix" values="1 0 0 0 0  0 1 0 0 0  0 0 1 0 0  0 0 0 1 0"/>
					</filter>
				</defs>
				<mask maskUnits="userSpaceOnUse" x="214.1" y="146.6" width="88.1" height="64" id="mask-2_35_">
					<g class="st75">
						<polygon id="path-1_35_" class="st4" points="0,256.7 440,256.7 440,0 0,0 						"/>
					</g>
				</mask>
				<path id="Fill-53" class="st76" d="M222.2,209.4l64.7,1.2c0.4-0.2,2.2-1,2.2-3.8c0-2.7-0.9-4-1.3-4.4h-24.3v-1.7h31.8
					c0.5-0.1,2.9-0.9,2.9-4.1c0-3.1-1.4-4.2-1.8-4.4h-33v-1.7h36.6c0.6-0.4,2.2-1.8,2.2-4.5c0-2.7-1.9-3.7-2.4-3.9h-35.9v-1.7H295
					c0.5-0.6,1.8-2.2,1.8-4.4c0-2.3-2.1-3.6-2.7-4h-50.3l18.5-17.7c0.3-0.6,1.3-3.2-0.1-6.1c-0.3-0.7-0.8-1.2-1.4-1.4
					c-1.5-0.4-3.3,0.6-3.4,0.7c0,0-21.7,15.8-29.9,21.8c-7.8,5.7-9.2,9.7-9.2,9.7l-0.2,0.6l-4.1,0v26.2h4.3v0.9
					c0,0.8,0.2,1.4,0.7,1.8C220.2,209.4,222.2,209.4,222.2,209.4"/>
				<defs>
					<filter id="Adobe_OpacityMaskFilter_35_" filterUnits="userSpaceOnUse" x="214.1" y="179.3" width="75" height="31.1">
						<feColorMatrix  type="matrix" values="1 0 0 0 0  0 1 0 0 0  0 0 1 0 0  0 0 0 1 0"/>
					</filter>
				</defs>
				<mask maskUnits="userSpaceOnUse" x="214.1" y="179.3" width="75" height="31.1" id="mask-2_36_">
					<g class="st77">
						<polygon id="path-1_36_" class="st4" points="0,256.7 440,256.7 440,0 0,0 						"/>
					</g>
				</mask>
				<path id="Fill-54" class="st78" d="M222.2,209.2l64.7,1.2c0.4-0.2,2.2-1,2.2-3.8c0-2.7-27.4-1.5-52.7-1.8
					c-22.9-0.3-18.1-25.3-18.1-25.3l-4.1-0.2v26.2h4.3v0.9c0,0.8,0.2,1.4,0.7,1.8C220.2,209.2,222.2,209.3,222.2,209.2"/>
				<defs>
					<filter id="Adobe_OpacityMaskFilter_36_" filterUnits="userSpaceOnUse" x="99.9" y="111.1" width="218.7" height="138.1">
						<feColorMatrix  type="matrix" values="1 0 0 0 0  0 1 0 0 0  0 0 1 0 0  0 0 0 1 0"/>
					</filter>
				</defs>
				<mask maskUnits="userSpaceOnUse" x="99.9" y="111.1" width="218.7" height="138.1" id="mask-2_37_">
					<g class="st79">
						<polygon id="path-1_37_" class="st4" points="0,256.7 440,256.7 440,0 0,0 						"/>
					</g>
				</mask>
				<path id="Fill-55" class="st80" d="M101.6,168.3H202v-29.9H101.6V168.3z M202.9,170h9.5v43.6H101.6V170H202.9z M317,247.6H101.6
					v-32.2h111.7c0.5,0,0.9-0.4,0.9-0.9v-45.3c0-0.5-0.4-0.9-0.9-0.9h-9.5v-30.7c0-0.5-0.4-0.9-0.9-0.9H101.6v-24h102.1v-1.6h-103
					c-0.5,0-0.8,0.4-0.8,0.8v25.5c0,0.1,0,0.1,0,0.2v31.6v45.3c0,0.1,0,0.1,0,0.2v33.7c0,0.5,0.4,0.8,0.8,0.8h217
					c0.5,0,0.8-0.4,0.8-0.8v-19H317V247.6z M318.6,231.1V111.9c0-0.5-0.4-0.8-0.8-0.8L318.6,231.1z"/>
				<defs>
					<filter id="Adobe_OpacityMaskFilter_37_" filterUnits="userSpaceOnUse" x="107.3" y="30.2" width="17.5" height="23.3">
						<feColorMatrix  type="matrix" values="1 0 0 0 0  0 1 0 0 0  0 0 1 0 0  0 0 0 1 0"/>
					</filter>
				</defs>
				<mask maskUnits="userSpaceOnUse" x="107.3" y="30.2" width="17.5" height="23.3" id="mask-2_38_">
					<g class="st81">
						<polygon id="path-1_38_" class="st4" points="0,256.7 440,256.7 440,0 0,0 						"/>
					</g>
				</mask>
				<path id="Fill-56" class="st82" d="M124,53.5c-0.1,0-0.3,0-0.4-0.1l-15.8-9c-0.3-0.2-0.4-0.4-0.4-0.7V31.1
					c0-0.5,0.4-0.9,0.9-0.9c0.5,0,0.9,0.4,0.9,0.9v12.1l15.4,8.8c0.4,0.2,0.6,0.8,0.3,1.2C124.6,53.4,124.3,53.5,124,53.5"/>
				<defs>
					<filter id="Adobe_OpacityMaskFilter_38_" filterUnits="userSpaceOnUse" x="84.4" y="19.6" width="47.6" height="47.7">
						<feColorMatrix  type="matrix" values="1 0 0 0 0  0 1 0 0 0  0 0 1 0 0  0 0 0 1 0"/>
					</filter>
				</defs>
				<mask maskUnits="userSpaceOnUse" x="84.4" y="19.6" width="47.6" height="47.7" id="mask-2_39_">
					<g class="st83">
						<polygon id="path-1_39_" class="st4" points="0,256.7 440,256.7 440,0 0,0 						"/>
					</g>
				</mask>
				<path id="Fill-57" class="st84" d="M108.3,21.3c-12.2,0-22.1,9.9-22.1,22.1c0,12.2,9.9,22.1,22.1,22.1s22.1-9.9,22.1-22.1
					C130.4,31.2,120.4,21.3,108.3,21.3 M108.3,67.3c-13.1,0-23.8-10.7-23.8-23.9s10.7-23.9,23.8-23.9c13.1,0,23.8,10.7,23.8,23.9
					S121.4,67.3,108.3,67.3"/>
				<defs>
					<filter id="Adobe_OpacityMaskFilter_39_" filterUnits="userSpaceOnUse" x="107" y="23.7" width="2.5" height="2.5">
						<feColorMatrix  type="matrix" values="1 0 0 0 0  0 1 0 0 0  0 0 1 0 0  0 0 0 1 0"/>
					</filter>
				</defs>
				<mask maskUnits="userSpaceOnUse" x="107" y="23.7" width="2.5" height="2.5" id="mask-2_40_">
					<g class="st85">
						<polygon id="path-1_40_" class="st4" points="0,256.7 440,256.7 440,0 0,0 						"/>
					</g>
				</mask>
				<path id="Fill-58" class="st86" d="M109.5,24.9c0,0.7-0.6,1.2-1.2,1.2s-1.2-0.6-1.2-1.2c0-0.7,0.5-1.2,1.2-1.2
					S109.5,24.3,109.5,24.9"/>
				<defs>
					<filter id="Adobe_OpacityMaskFilter_40_" filterUnits="userSpaceOnUse" x="107" y="60.7" width="2.5" height="2.5">
						<feColorMatrix  type="matrix" values="1 0 0 0 0  0 1 0 0 0  0 0 1 0 0  0 0 0 1 0"/>
					</filter>
				</defs>
				<mask maskUnits="userSpaceOnUse" x="107" y="60.7" width="2.5" height="2.5" id="mask-2_41_">
					<g class="st87">
						<polygon id="path-1_41_" class="st4" points="0,256.7 440,256.7 440,0 0,0 						"/>
					</g>
				</mask>
				<path id="Fill-59" class="st88" d="M109.5,61.9c0,0.7-0.6,1.2-1.2,1.2s-1.2-0.6-1.2-1.2s0.5-1.2,1.2-1.2S109.5,61.3,109.5,61.9"
					/>
				<defs>
					<filter id="Adobe_OpacityMaskFilter_41_" filterUnits="userSpaceOnUse" x="88.4" y="42.2" width="2.5" height="2.5">
						<feColorMatrix  type="matrix" values="1 0 0 0 0  0 1 0 0 0  0 0 1 0 0  0 0 0 1 0"/>
					</filter>
				</defs>
				<mask maskUnits="userSpaceOnUse" x="88.4" y="42.2" width="2.5" height="2.5" id="mask-2_42_">
					<g class="st89">
						<polygon id="path-1_42_" class="st4" points="0,256.7 440,256.7 440,0 0,0 						"/>
					</g>
				</mask>
				<path id="Fill-60" class="st90" d="M90.9,43.4c0,0.7-0.6,1.2-1.2,1.2c-0.7,0-1.2-0.6-1.2-1.2c0-0.7,0.5-1.2,1.2-1.2
					C90.3,42.2,90.9,42.8,90.9,43.4"/>
				<defs>
					<filter id="Adobe_OpacityMaskFilter_42_" filterUnits="userSpaceOnUse" x="125.7" y="42.2" width="2.5" height="2.5">
						<feColorMatrix  type="matrix" values="1 0 0 0 0  0 1 0 0 0  0 0 1 0 0  0 0 0 1 0"/>
					</filter>
				</defs>
				<mask maskUnits="userSpaceOnUse" x="125.7" y="42.2" width="2.5" height="2.5" id="mask-2_43_">
					<g class="st91">
						<polygon id="path-1_43_" class="st4" points="0,256.7 440,256.7 440,0 0,0 						"/>
					</g>
				</mask>
				<path id="Fill-61" class="st92" d="M128.1,43.4c0,0.7-0.6,1.2-1.2,1.2c-0.7,0-1.2-0.6-1.2-1.2c0-0.7,0.5-1.2,1.2-1.2
					C127.6,42.2,128.1,42.8,128.1,43.4"/>
				<defs>
					<filter id="Adobe_OpacityMaskFilter_43_" filterUnits="userSpaceOnUse" x="65.2" y="0.2" width="43" height="43.3">
						<feColorMatrix  type="matrix" values="1 0 0 0 0  0 1 0 0 0  0 0 1 0 0  0 0 0 1 0"/>
					</filter>
				</defs>
				<mask maskUnits="userSpaceOnUse" x="65.2" y="0.2" width="43" height="43.3" id="mask-2_44_">
					<g class="st93">
						<polygon id="path-1_44_" class="st4" points="0,256.7 440,256.7 440,0 0,0 						"/>
					</g>
				</mask>
				<path id="Fill-62" class="st94" d="M66.2,43.5c-0.4,0-0.8-0.3-0.8-0.7c-0.1-0.6-1.9-15,10.9-29.2C88.6-0.1,106.6,0.2,107.4,0.2
					c0.5,0,0.8,0.4,0.8,0.9c0,0.5-0.4,0.8-0.9,0.8h-0.1c-1.6,0-18.4,0.3-29.7,12.8C65.3,28.3,67,42.4,67.1,42.5
					c0.1,0.5-0.3,0.9-0.7,1C66.3,43.5,66.2,43.5,66.2,43.5"/>
				<defs>
					<filter id="Adobe_OpacityMaskFilter_44_" filterUnits="userSpaceOnUse" x="41.4" y="52" width="8.7" height="8.7">
						<feColorMatrix  type="matrix" values="1 0 0 0 0  0 1 0 0 0  0 0 1 0 0  0 0 0 1 0"/>
					</filter>
				</defs>
				<mask maskUnits="userSpaceOnUse" x="41.4" y="52" width="8.7" height="8.7" id="mask-2_45_">
					<g class="st95">
						<polygon id="path-1_45_" class="st4" points="0,256.7 440,256.7 440,0 0,0 						"/>
					</g>
				</mask>
				<path id="Fill-63" class="st96" d="M45.8,53.7c-1.5,0-2.6,1.2-2.6,2.6c0,1.5,1.2,2.6,2.6,2.6c1.5,0,2.6-1.2,2.6-2.6
					C48.4,54.8,47.2,53.7,45.8,53.7 M45.8,60.6c-2.4,0-4.3-2-4.3-4.3c0-2.4,1.9-4.3,4.3-4.3c2.4,0,4.3,2,4.3,4.3
					C50.1,58.7,48.2,60.6,45.8,60.6"/>
				<defs>
					<filter id="Adobe_OpacityMaskFilter_45_" filterUnits="userSpaceOnUse" x="377.9" y="204.9" width="8.7" height="8.7">
						<feColorMatrix  type="matrix" values="1 0 0 0 0  0 1 0 0 0  0 0 1 0 0  0 0 0 1 0"/>
					</filter>
				</defs>
				<mask maskUnits="userSpaceOnUse" x="377.9" y="204.9" width="8.7" height="8.7" id="mask-2_46_">
					<g class="st97">
						<polygon id="path-1_46_" class="st4" points="0,256.7 440,256.7 440,0 0,0 						"/>
					</g>
				</mask>
				<path id="Fill-64" class="st98" d="M382.3,206.6c-1.5,0-2.6,1.2-2.6,2.6c0,1.5,1.2,2.6,2.6,2.6s2.6-1.2,2.6-2.6
					C384.9,207.8,383.7,206.6,382.3,206.6 M382.3,213.6c-2.4,0-4.3-2-4.3-4.3c0-2.4,1.9-4.3,4.3-4.3c2.4,0,4.3,2,4.3,4.3
					C386.6,211.7,384.7,213.6,382.3,213.6"/>
				<defs>
					<filter id="Adobe_OpacityMaskFilter_46_" filterUnits="userSpaceOnUse" x="393" y="59.7" width="7.2" height="7.2">
						<feColorMatrix  type="matrix" values="1 0 0 0 0  0 1 0 0 0  0 0 1 0 0  0 0 0 1 0"/>
					</filter>
				</defs>
				<mask maskUnits="userSpaceOnUse" x="393" y="59.7" width="7.2" height="7.2" id="mask-2_47_">
					<g class="st99">
						<polygon id="path-1_47_" class="st4" points="0,256.7 440,256.7 440,0 0,0 						"/>
					</g>
				</mask>
				<path id="Fill-65" class="st100" d="M397.9,63.3l2.2-2.2c0.3-0.3,0.3-0.9,0-1.2c-0.3-0.3-0.9-0.3-1.2,0l-2.2,2.2l-2.2-2.2
					c-0.3-0.3-0.9-0.3-1.2,0c-0.3,0.3-0.3,0.9,0,1.2l2.2,2.2l-2.2,2.2c-0.3,0.3-0.3,0.9,0,1.2c0.2,0.2,0.4,0.3,0.6,0.3
					c0.2,0,0.4-0.1,0.6-0.3l2.2-2.2l2.2,2.2c0.2,0.2,0.4,0.3,0.6,0.3s0.4-0.1,0.6-0.3c0.3-0.3,0.3-0.9,0-1.2L397.9,63.3z"/>
				<defs>
					<filter id="Adobe_OpacityMaskFilter_47_" filterUnits="userSpaceOnUse" x="15.6" y="175" width="7.2" height="7.2">
						<feColorMatrix  type="matrix" values="1 0 0 0 0  0 1 0 0 0  0 0 1 0 0  0 0 0 1 0"/>
					</filter>
				</defs>
				<mask maskUnits="userSpaceOnUse" x="15.6" y="175" width="7.2" height="7.2" id="mask-2_48_">
					<g class="st101">
						<polygon id="path-1_48_" class="st4" points="0,256.7 440,256.7 440,0 0,0 						"/>
					</g>
				</mask>
				<path id="Fill-66" class="st102" d="M20.4,178.6l2.2-2.2c0.3-0.3,0.3-0.9,0-1.2c-0.3-0.3-0.9-0.3-1.2,0l-2.2,2.2l-2.2-2.2
					c-0.3-0.3-0.9-0.3-1.2,0c-0.3,0.3-0.3,0.9,0,1.2l2.2,2.2l-2.2,2.2c-0.3,0.3-0.3,0.9,0,1.2c0.2,0.2,0.4,0.3,0.6,0.3
					c0.2,0,0.4-0.1,0.6-0.3l2.2-2.2l2.2,2.2c0.2,0.2,0.4,0.3,0.6,0.3s0.4-0.1,0.6-0.3c0.3-0.3,0.3-0.9,0-1.2L20.4,178.6z"/>
				<defs>
					<filter id="Adobe_OpacityMaskFilter_48_" filterUnits="userSpaceOnUse" x="390.7" y="185.7" width="3.4" height="1.7">
						<feColorMatrix  type="matrix" values="1 0 0 0 0  0 1 0 0 0  0 0 1 0 0  0 0 0 1 0"/>
					</filter>
				</defs>
				<mask maskUnits="userSpaceOnUse" x="390.7" y="185.7" width="3.4" height="1.7" id="mask-2_49_">
					<g class="st103">
						<polygon id="path-1_49_" class="st4" points="0,256.7 440,256.7 440,0 0,0 						"/>
					</g>
				</mask>
				<path id="Fill-67" class="st104" d="M393.3,187.4h-1.7c-0.5,0-0.9-0.4-0.9-0.9c0-0.5,0.4-0.9,0.9-0.9h1.7c0.5,0,0.9,0.4,0.9,0.9
					C394.1,187,393.7,187.4,393.3,187.4"/>
				<defs>
					<filter id="Adobe_OpacityMaskFilter_49_" filterUnits="userSpaceOnUse" x="395.8" y="185.7" width="39.1" height="1.7">
						<feColorMatrix  type="matrix" values="1 0 0 0 0  0 1 0 0 0  0 0 1 0 0  0 0 0 1 0"/>
					</filter>
				</defs>
				<mask maskUnits="userSpaceOnUse" x="395.8" y="185.7" width="39.1" height="1.7" id="mask-2_50_">
					<g class="st105">
						<polygon id="path-1_50_" class="st4" points="0,256.7 440,256.7 440,0 0,0 						"/>
					</g>
				</mask>
				<path id="Fill-68" class="st106" d="M400,187.4h-3.4c-0.5,0-0.9-0.4-0.9-0.9c0-0.5,0.4-0.9,0.9-0.9h3.4c0.5,0,0.9,0.4,0.9,0.9
					C400.9,187,400.5,187.4,400,187.4 M406.8,187.4h-3.4c-0.5,0-0.9-0.4-0.9-0.9c0-0.5,0.4-0.9,0.9-0.9h3.4c0.5,0,0.9,0.4,0.9,0.9
					C407.7,187,407.3,187.4,406.8,187.4 M413.6,187.4h-3.4c-0.5,0-0.9-0.4-0.9-0.9c0-0.5,0.4-0.9,0.9-0.9h3.4c0.5,0,0.9,0.4,0.9,0.9
					C414.5,187,414.1,187.4,413.6,187.4 M420.4,187.4H417c-0.5,0-0.9-0.4-0.9-0.9c0-0.5,0.4-0.9,0.9-0.9h3.4c0.5,0,0.9,0.4,0.9,0.9
					C421.3,187,420.9,187.4,420.4,187.4 M427.2,187.4h-3.4c-0.5,0-0.9-0.4-0.9-0.9c0-0.5,0.4-0.9,0.9-0.9h3.4c0.5,0,0.9,0.4,0.9,0.9
					C428.1,187,427.7,187.4,427.2,187.4 M434,187.4h-3.4c-0.5,0-0.9-0.4-0.9-0.9c0-0.5,0.4-0.9,0.9-0.9h3.4c0.5,0,0.9,0.4,0.9,0.9
					C434.9,187,434.5,187.4,434,187.4"/>
				<defs>
					<filter id="Adobe_OpacityMaskFilter_50_" filterUnits="userSpaceOnUse" x="436.5" y="185.7" width="3.4" height="1.7">
						<feColorMatrix  type="matrix" values="1 0 0 0 0  0 1 0 0 0  0 0 1 0 0  0 0 0 1 0"/>
					</filter>
				</defs>
				<mask maskUnits="userSpaceOnUse" x="436.5" y="185.7" width="3.4" height="1.7" id="mask-2_51_">
					<g class="st107">
						<polygon id="path-1_51_" class="st4" points="0,256.7 440,256.7 440,0 0,0 						"/>
					</g>
				</mask>
				<path id="Fill-69" class="st108" d="M439.1,187.4h-1.7c-0.5,0-0.9-0.4-0.9-0.9c0-0.5,0.4-0.9,0.9-0.9h1.7c0.5,0,0.9,0.4,0.9,0.9
					C440,187,439.6,187.4,439.1,187.4"/>
				<defs>
					<filter id="Adobe_OpacityMaskFilter_51_" filterUnits="userSpaceOnUse" x="0" y="150" width="3.4" height="1.7">
						<feColorMatrix  type="matrix" values="1 0 0 0 0  0 1 0 0 0  0 0 1 0 0  0 0 0 1 0"/>
					</filter>
				</defs>
				<mask maskUnits="userSpaceOnUse" x="0" y="150" width="3.4" height="1.7" id="mask-2_52_">
					<g class="st109">
						<polygon id="path-1_52_" class="st4" points="0,256.7 440,256.7 440,0 0,0 						"/>
					</g>
				</mask>
				<path id="Fill-70" class="st110" d="M2.6,151.7H0.9c-0.5,0-0.9-0.4-0.9-0.9c0-0.5,0.4-0.9,0.9-0.9h1.7c0.5,0,0.9,0.4,0.9,0.9
					C3.4,151.4,3,151.7,2.6,151.7"/>
				<defs>
					<filter id="Adobe_OpacityMaskFilter_52_" filterUnits="userSpaceOnUse" x="5.1" y="150" width="39.1" height="1.7">
						<feColorMatrix  type="matrix" values="1 0 0 0 0  0 1 0 0 0  0 0 1 0 0  0 0 0 1 0"/>
					</filter>
				</defs>
				<mask maskUnits="userSpaceOnUse" x="5.1" y="150" width="39.1" height="1.7" id="mask-2_53_">
					<g class="st111">
						<polygon id="path-1_53_" class="st4" points="0,256.7 440,256.7 440,0 0,0 						"/>
					</g>
				</mask>
				<path id="Fill-71" class="st112" d="M9.4,151.7H6c-0.5,0-0.9-0.4-0.9-0.9c0-0.5,0.4-0.9,0.9-0.9h3.4c0.5,0,0.9,0.4,0.9,0.9
					C10.2,151.4,9.8,151.7,9.4,151.7 M16.1,151.7h-3.4c-0.5,0-0.9-0.4-0.9-0.9c0-0.5,0.4-0.9,0.9-0.9h3.4c0.5,0,0.9,0.4,0.9,0.9
					C17,151.4,16.6,151.7,16.1,151.7 M22.9,151.7h-3.4c-0.5,0-0.9-0.4-0.9-0.9c0-0.5,0.4-0.9,0.9-0.9h3.4c0.5,0,0.9,0.4,0.9,0.9
					C23.8,151.4,23.4,151.7,22.9,151.7 M29.7,151.7h-3.4c-0.5,0-0.9-0.4-0.9-0.9c0-0.5,0.4-0.9,0.9-0.9h3.4c0.5,0,0.9,0.4,0.9,0.9
					C30.6,151.4,30.2,151.7,29.7,151.7 M36.5,151.7h-3.4c-0.5,0-0.9-0.4-0.9-0.9c0-0.5,0.4-0.9,0.9-0.9h3.4c0.5,0,0.9,0.4,0.9,0.9
					C37.4,151.4,37,151.7,36.5,151.7 M43.3,151.7h-3.4c-0.5,0-0.9-0.4-0.9-0.9c0-0.5,0.4-0.9,0.9-0.9h3.4c0.5,0,0.9,0.4,0.9,0.9
					C44.2,151.4,43.8,151.7,43.3,151.7"/>
				<defs>
					<filter id="Adobe_OpacityMaskFilter_53_" filterUnits="userSpaceOnUse" x="45.8" y="150" width="3.4" height="1.7">
						<feColorMatrix  type="matrix" values="1 0 0 0 0  0 1 0 0 0  0 0 1 0 0  0 0 0 1 0"/>
					</filter>
				</defs>
				<mask maskUnits="userSpaceOnUse" x="45.8" y="150" width="3.4" height="1.7" id="mask-2_54_">
					<g class="st113">
						<polygon id="path-1_54_" class="st4" points="0,256.7 440,256.7 440,0 0,0 						"/>
					</g>
				</mask>
				<path id="Fill-72" class="st114" d="M48.4,151.7h-1.7c-0.5,0-0.9-0.4-0.9-0.9c0-0.5,0.4-0.9,0.9-0.9h1.7c0.5,0,0.9,0.4,0.9,0.9
					C49.3,151.4,48.9,151.7,48.4,151.7"/>
				<defs>
					<filter id="Adobe_OpacityMaskFilter_54_" filterUnits="userSpaceOnUse" x="395.4" y="172.7" width="38" height="1.7">
						<feColorMatrix  type="matrix" values="1 0 0 0 0  0 1 0 0 0  0 0 1 0 0  0 0 0 1 0"/>
					</filter>
				</defs>
				<mask maskUnits="userSpaceOnUse" x="395.4" y="172.7" width="38" height="1.7" id="mask-2_55_">
					<g class="st115">
						<polygon id="path-1_55_" class="st4" points="0,256.7 440,256.7 440,0 0,0 						"/>
					</g>
				</mask>
				<path id="Fill-73" class="st116" d="M432.5,174.4h-36.3c-0.5,0-0.9-0.4-0.9-0.9c0-0.5,0.4-0.9,0.9-0.9h36.3
					c0.5,0,0.9,0.4,0.9,0.9C433.4,174.1,433,174.4,432.5,174.4"/>
				<defs>
					<filter id="Adobe_OpacityMaskFilter_55_" filterUnits="userSpaceOnUse" x="38.2" y="162.6" width="38" height="1.7">
						<feColorMatrix  type="matrix" values="1 0 0 0 0  0 1 0 0 0  0 0 1 0 0  0 0 0 1 0"/>
					</filter>
				</defs>
				<mask maskUnits="userSpaceOnUse" x="38.2" y="162.6" width="38" height="1.7" id="mask-2_56_">
					<g class="st117">
						<polygon id="path-1_56_" class="st4" points="0,256.7 440,256.7 440,0 0,0 						"/>
					</g>
				</mask>
				<path id="Fill-74" class="st118" d="M75.4,164.3H39.1c-0.5,0-0.9-0.4-0.9-0.9c0-0.5,0.4-0.9,0.9-0.9h36.3c0.5,0,0.9,0.4,0.9,0.9
					C76.3,163.9,75.9,164.3,75.4,164.3"/>
				<defs>
					<filter id="Adobe_OpacityMaskFilter_56_" filterUnits="userSpaceOnUse" x="165.9" y="69.4" width="1.9" height="7.2">
						<feColorMatrix  type="matrix" values="1 0 0 0 0  0 1 0 0 0  0 0 1 0 0  0 0 0 1 0"/>
					</filter>
				</defs>
				<mask maskUnits="userSpaceOnUse" x="165.9" y="69.4" width="1.9" height="7.2" id="mask-2_57_">
					<g class="st119">
						<polygon id="path-1_57_" class="st4" points="0,256.7 440,256.7 440,0 0,0 						"/>
					</g>
				</mask>
				<path id="Fill-75" class="st120" d="M166.9,69.4c-0.5,0-1,0.4-1,1v5.3c0,0.5,0.4,1,1,1s1-0.4,1-1v-5.3
					C167.8,69.9,167.4,69.4,166.9,69.4"/>
				<defs>
					<filter id="Adobe_OpacityMaskFilter_57_" filterUnits="userSpaceOnUse" x="165.9" y="47.7" width="1.9" height="5.8">
						<feColorMatrix  type="matrix" values="1 0 0 0 0  0 1 0 0 0  0 0 1 0 0  0 0 0 1 0"/>
					</filter>
				</defs>
				<mask maskUnits="userSpaceOnUse" x="165.9" y="47.7" width="1.9" height="5.8" id="mask-2_58_">
					<g class="st121">
						<polygon id="path-1_58_" class="st4" points="0,256.7 440,256.7 440,0 0,0 						"/>
					</g>
				</mask>
				<path id="Fill-76" class="st122" d="M166.9,47.7c-0.5,0-1,0.4-1,1v3.9c0,0.5,0.4,1,1,1s1-0.4,1-1v-3.9
					C167.8,48.1,167.4,47.7,166.9,47.7"/>
				<defs>
					<filter id="Adobe_OpacityMaskFilter_58_" filterUnits="userSpaceOnUse" x="152.5" y="53.4" width="3.9" height="3.1">
						<feColorMatrix  type="matrix" values="1 0 0 0 0  0 1 0 0 0  0 0 1 0 0  0 0 0 1 0"/>
					</filter>
				</defs>
				<mask maskUnits="userSpaceOnUse" x="152.5" y="53.4" width="3.9" height="3.1" id="mask-2_59_">
					<g class="st123">
						<polygon id="path-1_59_" class="st4" points="0,256.7 440,256.7 440,0 0,0 						"/>
					</g>
				</mask>
				<path id="Fill-77" class="st124" d="M155.9,54.7l-2-1.2c-0.5-0.3-1.1-0.1-1.3,0.4c-0.3,0.5-0.1,1.1,0.4,1.3l2,1.2
					c0.5,0.3,1.1,0.1,1.3-0.4C156.5,55.6,156.4,55,155.9,54.7"/>
				<defs>
					<filter id="Adobe_OpacityMaskFilter_59_" filterUnits="userSpaceOnUse" x="175.9" y="67" width="6" height="4.3">
						<feColorMatrix  type="matrix" values="1 0 0 0 0  0 1 0 0 0  0 0 1 0 0  0 0 0 1 0"/>
					</filter>
				</defs>
				<mask maskUnits="userSpaceOnUse" x="175.9" y="67" width="6" height="4.3" id="mask-2_60_">
					<g class="st125">
						<polygon id="path-1_60_" class="st4" points="0,256.7 440,256.7 440,0 0,0 						"/>
					</g>
				</mask>
				<path id="Fill-78" class="st126" d="M181.4,69.5l-4.1-2.4c-0.5-0.3-1.1-0.1-1.3,0.4s-0.1,1.1,0.4,1.3l4.1,2.4
					c0.5,0.3,1.1,0.1,1.3-0.4C182.1,70.3,181.9,69.8,181.4,69.5"/>
				<defs>
					<filter id="Adobe_OpacityMaskFilter_60_" filterUnits="userSpaceOnUse" x="159.2" y="70.6" width="3.3" height="4.3">
						<feColorMatrix  type="matrix" values="1 0 0 0 0  0 1 0 0 0  0 0 1 0 0  0 0 0 1 0"/>
					</filter>
				</defs>
				<mask maskUnits="userSpaceOnUse" x="159.2" y="70.6" width="3.3" height="4.3" id="mask-2_61_">
					<g class="st127">
						<polygon id="path-1_61_" class="st4" points="0,256.7 440,256.7 440,0 0,0 						"/>
					</g>
				</mask>
				<path id="Fill-79" class="st128" d="M162,70.7c-0.5-0.3-1.1-0.1-1.3,0.4l-1.4,2.4c-0.3,0.5-0.1,1.1,0.4,1.3
					c0.5,0.3,1.1,0.1,1.3-0.4l1.4-2.4C162.6,71.5,162.4,71,162,70.7"/>
				<defs>
					<filter id="Adobe_OpacityMaskFilter_61_" filterUnits="userSpaceOnUse" x="171.7" y="48" width="3.8" height="5.1">
						<feColorMatrix  type="matrix" values="1 0 0 0 0  0 1 0 0 0  0 0 1 0 0  0 0 0 1 0"/>
					</filter>
				</defs>
				<mask maskUnits="userSpaceOnUse" x="171.7" y="48" width="3.8" height="5.1" id="mask-2_62_">
					<g class="st129">
						<polygon id="path-1_62_" class="st4" points="0,256.7 440,256.7 440,0 0,0 						"/>
					</g>
				</mask>
				<path id="Fill-80" class="st130" d="M175,48.1c-0.5-0.3-1.1-0.1-1.3,0.4l-1.8,3.2c-0.3,0.5-0.1,1.1,0.4,1.3
					c0.5,0.3,1.1,0.1,1.3-0.4l1.8-3.2C175.6,49,175.4,48.4,175,48.1"/>
				<defs>
					<filter id="Adobe_OpacityMaskFilter_62_" filterUnits="userSpaceOnUse" x="175.5" y="61.2" width="5.8" height="1.9">
						<feColorMatrix  type="matrix" values="1 0 0 0 0  0 1 0 0 0  0 0 1 0 0  0 0 0 1 0"/>
					</filter>
				</defs>
				<mask maskUnits="userSpaceOnUse" x="175.5" y="61.2" width="5.8" height="1.9" id="mask-2_63_">
					<g class="st131">
						<polygon id="path-1_63_" class="st4" points="0,256.7 440,256.7 440,0 0,0 						"/>
					</g>
				</mask>
				<path id="Fill-81" class="st132" d="M180.4,61.2h-3.9c-0.5,0-1,0.4-1,1c0,0.5,0.4,1,1,1h3.9c0.5,0,1-0.4,1-1
					C181.3,61.6,180.9,61.2,180.4,61.2"/>
				<defs>
					<filter id="Adobe_OpacityMaskFilter_63_" filterUnits="userSpaceOnUse" x="152.4" y="61.2" width="5.8" height="1.9">
						<feColorMatrix  type="matrix" values="1 0 0 0 0  0 1 0 0 0  0 0 1 0 0  0 0 0 1 0"/>
					</filter>
				</defs>
				<mask maskUnits="userSpaceOnUse" x="152.4" y="61.2" width="5.8" height="1.9" id="mask-2_64_">
					<g class="st133">
						<polygon id="path-1_64_" class="st4" points="0,256.7 440,256.7 440,0 0,0 						"/>
					</g>
				</mask>
				<path id="Fill-82" class="st134" d="M157.2,61.2h-3.9c-0.5,0-1,0.4-1,1c0,0.5,0.4,1,1,1h3.9c0.5,0,1-0.4,1-1
					C158.2,61.6,157.8,61.2,157.2,61.2"/>
				<defs>
					<filter id="Adobe_OpacityMaskFilter_64_" filterUnits="userSpaceOnUse" x="171.3" y="70.6" width="4.3" height="6.1">
						<feColorMatrix  type="matrix" values="1 0 0 0 0  0 1 0 0 0  0 0 1 0 0  0 0 0 1 0"/>
					</filter>
				</defs>
				<mask maskUnits="userSpaceOnUse" x="171.3" y="70.6" width="4.3" height="6.1" id="mask-2_65_">
					<g class="st135">
						<polygon id="path-1_65_" class="st4" points="0,256.7 440,256.7 440,0 0,0 						"/>
					</g>
				</mask>
				<path id="Fill-83" class="st136" d="M175.5,75.2l-2.4-4.1c-0.3-0.5-0.9-0.6-1.3-0.4c-0.5,0.3-0.6,0.9-0.4,1.3l2.4,4.1
					c0.3,0.5,0.9,0.6,1.3,0.4C175.6,76.3,175.8,75.7,175.5,75.2"/>
				<defs>
					<filter id="Adobe_OpacityMaskFilter_65_" filterUnits="userSpaceOnUse" x="159.2" y="49.5" width="4.8" height="6.9">
						<feColorMatrix  type="matrix" values="1 0 0 0 0  0 1 0 0 0  0 0 1 0 0  0 0 0 1 0"/>
					</filter>
				</defs>
				<mask maskUnits="userSpaceOnUse" x="159.2" y="49.5" width="4.8" height="6.9" id="mask-2_66_">
					<g class="st137">
						<polygon id="path-1_66_" class="st4" points="0,256.7 440,256.7 440,0 0,0 						"/>
					</g>
				</mask>
				<path id="Fill-84" class="st138" d="M163.9,55l-2.9-5c-0.3-0.5-0.9-0.6-1.3-0.4c-0.5,0.3-0.6,0.9-0.4,1.3l2.9,5
					c0.3,0.5,0.9,0.6,1.3,0.4C164,56.1,164.1,55.5,163.9,55"/>
				<defs>
					<filter id="Adobe_OpacityMaskFilter_66_" filterUnits="userSpaceOnUse" x="174" y="53.6" width="7.1" height="4.9">
						<feColorMatrix  type="matrix" values="1 0 0 0 0  0 1 0 0 0  0 0 1 0 0  0 0 0 1 0"/>
					</filter>
				</defs>
				<mask maskUnits="userSpaceOnUse" x="174" y="53.6" width="7.1" height="4.9" id="mask-2_67_">
					<g class="st139">
						<polygon id="path-1_67_" class="st4" points="0,256.7 440,256.7 440,0 0,0 						"/>
					</g>
				</mask>
				<path id="Fill-85" class="st140" d="M180.9,54.1c-0.3-0.5-0.9-0.6-1.3-0.4l-5.1,3c-0.5,0.3-0.6,0.9-0.4,1.3
					c0.3,0.5,0.9,0.6,1.3,0.4l5.1-3C181,55.1,181.2,54.5,180.9,54.1"/>
				<defs>
					<filter id="Adobe_OpacityMaskFilter_67_" filterUnits="userSpaceOnUse" x="154.2" y="65.4" width="6.4" height="4.5">
						<feColorMatrix  type="matrix" values="1 0 0 0 0  0 1 0 0 0  0 0 1 0 0  0 0 0 1 0"/>
					</filter>
				</defs>
				<mask maskUnits="userSpaceOnUse" x="154.2" y="65.4" width="6.4" height="4.5" id="mask-2_68_">
					<g class="st141">
						<polygon id="path-1_68_" class="st4" points="0,256.7 440,256.7 440,0 0,0 						"/>
					</g>
				</mask>
				<path id="Fill-86" class="st142" d="M160.5,65.9c-0.3-0.5-0.9-0.6-1.3-0.4l-4.5,2.6c-0.5,0.3-0.6,0.9-0.4,1.3
					c0.3,0.5,0.9,0.6,1.3,0.4l4.5-2.6C160.6,66.9,160.8,66.3,160.5,65.9"/>
				<defs>
					<filter id="Adobe_OpacityMaskFilter_68_" filterUnits="userSpaceOnUse" x="155.6" y="50.9" width="1.9" height="1.9">
						<feColorMatrix  type="matrix" values="1 0 0 0 0  0 1 0 0 0  0 0 1 0 0  0 0 0 1 0"/>
					</filter>
				</defs>
				<mask maskUnits="userSpaceOnUse" x="155.6" y="50.9" width="1.9" height="1.9" id="mask-2_69_">
					<g class="st143">
						<polygon id="path-1_69_" class="st4" points="0,256.7 440,256.7 440,0 0,0 						"/>
					</g>
				</mask>
				<path id="Fill-87" class="st144" d="M156.6,50.9c0.5,0,1,0.4,1,1c0,0.5-0.4,1-1,1s-1-0.4-1-1C155.6,51.4,156.1,50.9,156.6,50.9"
					/>
				<defs>
					<filter id="Adobe_OpacityMaskFilter_69_" filterUnits="userSpaceOnUse" x="153.1" y="48.3" width="1.9" height="1.9">
						<feColorMatrix  type="matrix" values="1 0 0 0 0  0 1 0 0 0  0 0 1 0 0  0 0 0 1 0"/>
					</filter>
				</defs>
				<mask maskUnits="userSpaceOnUse" x="153.1" y="48.3" width="1.9" height="1.9" id="mask-2_70_">
					<g class="st145">
						<polygon id="path-1_70_" class="st4" points="0,256.7 440,256.7 440,0 0,0 						"/>
					</g>
				</mask>
				<path id="Fill-88" class="st146" d="M154,48.3c0.5,0,1,0.4,1,1c0,0.5-0.4,1-1,1c-0.5,0-1-0.4-1-1
					C153.1,48.8,153.5,48.3,154,48.3"/>
				<defs>
					<filter id="Adobe_OpacityMaskFilter_70_" filterUnits="userSpaceOnUse" x="178.8" y="74.1" width="1.9" height="1.9">
						<feColorMatrix  type="matrix" values="1 0 0 0 0  0 1 0 0 0  0 0 1 0 0  0 0 0 1 0"/>
					</filter>
				</defs>
				<mask maskUnits="userSpaceOnUse" x="178.8" y="74.1" width="1.9" height="1.9" id="mask-2_71_">
					<g class="st147">
						<polygon id="path-1_71_" class="st4" points="0,256.7 440,256.7 440,0 0,0 						"/>
					</g>
				</mask>
				<path id="Fill-89" class="st148" d="M179.7,74.1c0.5,0,1,0.4,1,1c0,0.5-0.4,1-1,1c-0.5,0-1-0.4-1-1
					C178.8,74.5,179.2,74.1,179.7,74.1"/>
				<defs>
					<filter id="Adobe_OpacityMaskFilter_71_" filterUnits="userSpaceOnUse" x="176.2" y="71.5" width="1.9" height="1.9">
						<feColorMatrix  type="matrix" values="1 0 0 0 0  0 1 0 0 0  0 0 1 0 0  0 0 0 1 0"/>
					</filter>
				</defs>
				<mask maskUnits="userSpaceOnUse" x="176.2" y="71.5" width="1.9" height="1.9" id="mask-2_72_">
					<g class="st149">
						<polygon id="path-1_72_" class="st4" points="0,256.7 440,256.7 440,0 0,0 						"/>
					</g>
				</mask>
				<path id="Fill-90" class="st150" d="M177.2,71.5c0.5,0,1,0.4,1,1c0,0.5-0.4,1-1,1s-1-0.4-1-1C176.2,71.9,176.6,71.5,177.2,71.5"
					/>
				<defs>
					<filter id="Adobe_OpacityMaskFilter_72_" filterUnits="userSpaceOnUse" x="157.7" y="56.7" width="1.9" height="1.9">
						<feColorMatrix  type="matrix" values="1 0 0 0 0  0 1 0 0 0  0 0 1 0 0  0 0 0 1 0"/>
					</filter>
				</defs>
				<mask maskUnits="userSpaceOnUse" x="157.7" y="56.7" width="1.9" height="1.9" id="mask-2_73_">
					<g class="st151">
						<polygon id="path-1_73_" class="st4" points="0,256.7 440,256.7 440,0 0,0 						"/>
					</g>
				</mask>
				<path id="Fill-91" class="st152" d="M158.7,56.7c0.5,0,1,0.4,1,1c0,0.5-0.4,1-1,1s-1-0.4-1-1C157.7,57.1,158.1,56.7,158.7,56.7"
					/>
				<defs>
					<filter id="Adobe_OpacityMaskFilter_73_" filterUnits="userSpaceOnUse" x="169.8" y="54.5" width="1.9" height="1.9">
						<feColorMatrix  type="matrix" values="1 0 0 0 0  0 1 0 0 0  0 0 1 0 0  0 0 0 1 0"/>
					</filter>
				</defs>
				<mask maskUnits="userSpaceOnUse" x="169.8" y="54.5" width="1.9" height="1.9" id="mask-2_74_">
					<g class="st153">
						<polygon id="path-1_74_" class="st4" points="0,256.7 440,256.7 440,0 0,0 						"/>
					</g>
				</mask>
				<path id="Fill-92" class="st154" d="M170.7,54.5c0.5,0,1,0.4,1,1c0,0.5-0.4,1-1,1c-0.5,0-1-0.4-1-1
					C169.8,54.9,170.2,54.5,170.7,54.5"/>
				<defs>
					<filter id="Adobe_OpacityMaskFilter_74_" filterUnits="userSpaceOnUse" x="173.1" y="65.1" width="1.9" height="1.9">
						<feColorMatrix  type="matrix" values="1 0 0 0 0  0 1 0 0 0  0 0 1 0 0  0 0 0 1 0"/>
					</filter>
				</defs>
				<mask maskUnits="userSpaceOnUse" x="173.1" y="65.1" width="1.9" height="1.9" id="mask-2_75_">
					<g class="st155">
						<polygon id="path-1_75_" class="st4" points="0,256.7 440,256.7 440,0 0,0 						"/>
					</g>
				</mask>
				<path id="Fill-93" class="st156" d="M174.1,65.1c0.5,0,1,0.4,1,1c0,0.5-0.4,1-1,1c-0.5,0-1-0.4-1-1
					C173.1,65.5,173.6,65.1,174.1,65.1"/>
				<defs>
					<filter id="Adobe_OpacityMaskFilter_75_" filterUnits="userSpaceOnUse" x="46.4" y="201" width="3.6" height="3.6">
						<feColorMatrix  type="matrix" values="1 0 0 0 0  0 1 0 0 0  0 0 1 0 0  0 0 0 1 0"/>
					</filter>
				</defs>
				<mask maskUnits="userSpaceOnUse" x="46.4" y="201" width="3.6" height="3.6" id="mask-2_76_">
					<g class="st157">
						<polygon id="path-1_76_" class="st4" points="0,256.7 440,256.7 440,0 0,0 						"/>
					</g>
				</mask>
				<path id="Fill-94" class="st158" d="M49.3,202.8l0.5-0.5c0.3-0.3,0.3-0.8,0-1.1c-0.3-0.3-0.8-0.3-1.1,0l-0.5,0.5l-0.5-0.5
					c-0.3-0.3-0.8-0.3-1.1,0c-0.3,0.3-0.3,0.8,0,1.1l0.5,0.5l-0.5,0.5c-0.3,0.3-0.3,0.8,0,1.1c0.3,0.3,0.8,0.3,1.1,0l0.5-0.5
					l0.5,0.5c0.3,0.3,0.8,0.3,1.1,0c0.3-0.3,0.3-0.8,0-1.1L49.3,202.8z"/>
				<defs>
					<filter id="Adobe_OpacityMaskFilter_76_" filterUnits="userSpaceOnUse" x="27.1" y="220.3" width="3.6" height="3.6">
						<feColorMatrix  type="matrix" values="1 0 0 0 0  0 1 0 0 0  0 0 1 0 0  0 0 0 1 0"/>
					</filter>
				</defs>
				<mask maskUnits="userSpaceOnUse" x="27.1" y="220.3" width="3.6" height="3.6" id="mask-2_77_">
					<g class="st159">
						<polygon id="path-1_77_" class="st4" points="0,256.7 440,256.7 440,0 0,0 						"/>
					</g>
				</mask>
				<path id="Fill-95" class="st160" d="M30,222.1l0.5-0.5c0.3-0.3,0.3-0.8,0-1.1c-0.3-0.3-0.8-0.3-1.1,0l-0.5,0.5l-0.5-0.5
					c-0.3-0.3-0.8-0.3-1.1,0c-0.3,0.3-0.3,0.8,0,1.1l0.5,0.5l-0.5,0.5c-0.3,0.3-0.3,0.8,0,1.1c0.3,0.3,0.8,0.3,1.1,0l0.5-0.5
					l0.5,0.5c0.3,0.3,0.8,0.3,1.1,0c0.3-0.3,0.3-0.8,0-1.1L30,222.1z"/>
				<defs>
					<filter id="Adobe_OpacityMaskFilter_77_" filterUnits="userSpaceOnUse" x="32.7" y="207.4" width="11.1" height="10.7">
						<feColorMatrix  type="matrix" values="1 0 0 0 0  0 1 0 0 0  0 0 1 0 0  0 0 0 1 0"/>
					</filter>
				</defs>
				<mask maskUnits="userSpaceOnUse" x="32.7" y="207.4" width="11.1" height="10.7" id="mask-2_78_">
					<g class="st161">
						<polygon id="path-1_78_" class="st4" points="0,256.7 440,256.7 440,0 0,0 						"/>
					</g>
				</mask>
				<path id="Fill-96" class="st162" d="M40.2,213.5c-0.2,0.2-0.3,0.4-0.2,0.7l0.3,1.8c-1.8-0.9-1.7-0.9-2-0.9c-0.2,0-0.2,0-2,0.9
					l0.3-1.8c0-0.2,0-0.5-0.2-0.7l-1.3-1.3l1.8-0.3c0.2,0,0.5-0.2,0.6-0.4l0.8-1.6l0.8,1.6c0.1,0.2,0.3,0.4,0.6,0.4l1.8,0.3
					L40.2,213.5z M43.2,210.9l-2.9-0.4l-1.3-2.7c-0.3-0.6-1.1-0.6-1.3,0l-1.3,2.7l-2.9,0.4c-0.6,0.1-0.9,0.9-0.4,1.3l2.1,2.1
					l-0.5,2.9c-0.1,0.6,0.5,1.1,1.1,0.8l2.6-1.4l2.6,1.4c0.6,0.3,1.2-0.2,1.1-0.8l-0.5-2.9l2.1-2.1C44.1,211.8,43.8,211,43.2,210.9
					L43.2,210.9z"/>
				<defs>
					<filter id="Adobe_OpacityMaskFilter_78_" filterUnits="userSpaceOnUse" x="31.2" y="208.4" width="1.5" height="1.5">
						<feColorMatrix  type="matrix" values="1 0 0 0 0  0 1 0 0 0  0 0 1 0 0  0 0 0 1 0"/>
					</filter>
				</defs>
				<mask maskUnits="userSpaceOnUse" x="31.2" y="208.4" width="1.5" height="1.5" id="mask-2_79_">
					<g class="st163">
						<polygon id="path-1_79_" class="st4" points="0,256.7 440,256.7 440,0 0,0 						"/>
					</g>
				</mask>
				<path id="Fill-97" class="st164" d="M31.9,208.4c0.4,0,0.8,0.3,0.8,0.8c0,0.4-0.3,0.8-0.8,0.8c-0.4,0-0.8-0.3-0.8-0.8
					C31.2,208.7,31.5,208.4,31.9,208.4"/>
				<defs>
					<filter id="Adobe_OpacityMaskFilter_79_" filterUnits="userSpaceOnUse" x="40.6" y="206.7" width="1.5" height="1.5">
						<feColorMatrix  type="matrix" values="1 0 0 0 0  0 1 0 0 0  0 0 1 0 0  0 0 0 1 0"/>
					</filter>
				</defs>
				<mask maskUnits="userSpaceOnUse" x="40.6" y="206.7" width="1.5" height="1.5" id="mask-2_80_">
					<g class="st165">
						<polygon id="path-1_80_" class="st4" points="0,256.7 440,256.7 440,0 0,0 						"/>
					</g>
				</mask>
				<path id="Fill-98" class="st166" d="M41.3,206.7c0.4,0,0.8,0.3,0.8,0.8c0,0.4-0.3,0.8-0.8,0.8c-0.4,0-0.8-0.3-0.8-0.8
					C40.6,207,40.9,206.7,41.3,206.7"/>
				<defs>
					<filter id="Adobe_OpacityMaskFilter_80_" filterUnits="userSpaceOnUse" x="43.2" y="215" width="1.5" height="1.5">
						<feColorMatrix  type="matrix" values="1 0 0 0 0  0 1 0 0 0  0 0 1 0 0  0 0 0 1 0"/>
					</filter>
				</defs>
				<mask maskUnits="userSpaceOnUse" x="43.2" y="215" width="1.5" height="1.5" id="mask-2_81_">
					<g class="st167">
						<polygon id="path-1_81_" class="st4" points="0,256.7 440,256.7 440,0 0,0 						"/>
					</g>
				</mask>
				<path id="Fill-99" class="st168" d="M43.9,215c0.4,0,0.8,0.3,0.8,0.8c0,0.4-0.3,0.8-0.8,0.8s-0.8-0.3-0.8-0.8
					C43.2,215.3,43.5,215,43.9,215"/>
			</g>
		</g>
	</g>
</g>
<defs>
	<filter id="Adobe_OpacityMaskFilter_81_" filterUnits="userSpaceOnUse" x="101.6" y="138.7" width="100.4" height="29.6">
		<feColorMatrix  type="matrix" values="1 0 0 0 0  0 1 0 0 0  0 0 1 0 0  0 0 0 1 0"/>
	</filter>
</defs>
<mask maskUnits="userSpaceOnUse" x="101.6" y="138.7" width="100.4" height="29.6" id="mask-2_84_">
	<g class="st169">
		<polygon id="path-1_84_" class="st4" points="11.7,195.9 404.3,195.9 404.3,28.2 11.7,28.2 		"/>
	</g>
</mask>
<polygon id="Fill-49_2_" class="st170" points="101.6,138.7 101.6,168.3 202,168.3 202,138.7 "/>
<defs>
	<filter id="Adobe_OpacityMaskFilter_82_" filterUnits="userSpaceOnUse" x="101.6" y="153.8" width="100.4" height="14.6">
		<feColorMatrix  type="matrix" values="1 0 0 0 0  0 1 0 0 0  0 0 1 0 0  0 0 0 1 0"/>
	</filter>
</defs>
<mask maskUnits="userSpaceOnUse" x="101.6" y="153.8" width="100.4" height="14.6" id="mask-2_82_">
	<g class="st171">
		<polygon id="path-1_82_" class="st4" points="11.2,198.3 404.9,198.3 404.9,16.1 11.2,16.1 		"/>
	</g>
</mask>
<polygon id="Fill-50_1_" class="st172" points="101.6,168.3 202,168.3 202,153.8 101.6,153.8 "/>
<g>
	<rect x="238.7" y="111.9" class="st4" width="46" height="10.7"/>
	<g id="logo-merqueo_x2F_nuevo-logo_x2F_logo-horizontal-flash">
		<g id="_x2192_-_xD83D__xDD8D__xFE0F_-color-logo_1_">
			<g id="forma-logo_1_">
			</g>
			<defs>
				<filter id="Adobe_OpacityMaskFilter_83_" filterUnits="userSpaceOnUse" x="231.7" y="104.2" width="58.8" height="26.2">
					<feColorMatrix  type="matrix" values="1 0 0 0 0  0 1 0 0 0  0 0 1 0 0  0 0 0 1 0"/>
				</filter>
			</defs>
			<mask maskUnits="userSpaceOnUse" x="231.7" y="104.2" width="58.8" height="26.2" id="mask-2_83_">
				<g class="st173">
					<path id="path-1_83_" class="st4" d="M290.5,112.5c-3.6,0-5.9-2.2-6.2-5.5c-5.4,3-9.3,1.3-10.6-1.9c-3.4,3.2-9.3,2.7-10.9-0.7
						c-3,3.6-9,3.5-10.9,0.9c-2.5,4.5-8.3,4.1-10.8,2c-0.6,3-4.8,5.4-7.9,5c2.6,2.6,2.5,7.5-1.5,9.8c3.6,0,5.9,2.2,6.2,5.5
						c5.2-3,9.3-1.3,10.6,1.9c3.4-3.2,9.3-2.7,10.9,0.7c3-3.6,9-3.5,10.9-0.9c2.5-4.5,8.3-4.1,10.8-2c0.6-3,4.8-5.4,7.9-5
						C286.4,119.7,286.6,114.8,290.5,112.5z M246,120.5c-0.9-0.1-1.4-0.3-1.4-0.9c0-0.5,0.3-1.2,0.8-2.4c0.3-0.7,0.8-1.6,1.2-2.4
						c-1.1,1.4-3,4-3.7,5.6c-0.9-0.1-1.5-0.3-1.5-1.1c0-0.6,0.4-2.5,0.7-4.2c-0.8,1.7-1.5,3.5-2.1,5.2c-0.9-0.1-1.4-0.3-1.4-0.9
						c0-0.5,0.3-1.2,0.8-2.4c0.6-1.4,1.3-2.7,2.1-3.9c0.2,0,0.4-0.1,0.6,0c0.9,0,1.4,0.1,1.4,0.8c0,0.3-0.2,1.9-0.4,3.4
						c0.9-1.5,2-2.9,3.1-4.2c0.5-0.1,2.1-0.1,2.6,0.3C247.7,115.7,246.8,118.1,246,120.5z M249.6,120.6c-0.5,0-0.9-0.2-1.4-0.7
						c-0.3-0.3-0.5-0.7-0.5-1.1c0-0.9,1.4-3.8,2.5-5.6c0.7-0.1,1.4-0.2,2.1-0.2c0.5,0,1,0.1,1.3,0.5c0.2,0.2,0.4,0.5,0.4,0.7
						c-1,0.2-2,0.4-3,0.5c-0.2,0.4-0.4,0.8-0.6,1.3c0.4-0.1,0.8-0.2,1.2-0.2c0.3,0,0.6,0.1,0.9,0.4c0.2,0.2,0.4,0.4,0.6,0.6
						c-0.7,0.3-1.4,0.7-2,0.7c-0.4,0-0.8-0.2-1.1-0.5c-0.2,0.6-0.5,1.2-0.7,1.8c0.6,0,1.1-0.1,1.4-0.1c0.4,0,0.8,0.1,1.2,0.4
						c0.2,0.1,0.4,0.3,0.5,0.5C251.8,120.2,250,120.6,249.6,120.6L249.6,120.6z M256.4,117.9c0.6,0.5,1.4,0.9,2.1,1
						c-0.1,0.4-0.2,0.7-0.4,1c-0.3,0.5-0.7,0.6-0.9,0.6c-0.7,0-1.7-1.1-2-2.4c-0.3,0.8-0.6,1.6-0.8,2.4c-0.9-0.1-1.4-0.3-1.4-0.9
						c0-0.5,0.3-1.2,0.8-2.4c0.3-0.7,0.7-1.5,1.1-2.2c-0.2-0.5-0.4-1.1-0.4-1.7c0.9-0.1,2-0.2,2.6-0.2c0.8,0,1.3,0.2,1.6,0.7
						c0.2,0.3,0.3,0.6,0.4,1c0.3,0.2,0.4,0.5,0.4,0.8C259.4,116.9,258.1,117.5,256.4,117.9L256.4,117.9z M265.2,120.7
						c-0.1,0.3-0.2,0.7-0.4,1c-0.4,0.5-0.7,0.6-1,0.6c-0.6,0-1.4-0.5-1.8-1.7h-0.1c-0.6,0-1.1-0.2-1.5-0.6c-0.6-0.5-0.9-1.2-0.9-1.9
						c0-1.8,1.6-5.1,4.5-5.1c0.5,0,1,0.2,1.4,0.5c0.4,0.4,0.6,0.9,0.6,1.7c-0.1,1.6-1,3.9-2.5,4.9
						C263.8,120.6,264.6,120.7,265.2,120.7z M271.2,118.1c-0.7,2-1.9,2.6-2.9,2.6c-0.6,0-1.2-0.2-1.6-0.6c-0.6-0.3-0.9-1-0.8-1.6
						c0-1,1-3.4,2-5.2c0.5,0,1.1,0.1,1.5,0.3c-0.5,1.2-1.8,4.2-1.8,5.4c0,0.3,0,0.5,0.1,0.7c0.6,0,1-0.5,1.6-1.8
						c0.5-1,1.1-2.7,1.8-4.7c0.5,0,1.2,0.1,1.5,0.3C272.2,115,271.8,116.6,271.2,118.1z M275,118.8c0.4,0,0.9,0.1,1.2,0.4
						c0.2,0.1,0.4,0.3,0.5,0.5c-0.7,0.4-2.4,0.8-2.9,0.8c-0.5,0-0.9-0.2-1.4-0.7c-0.3-0.3-0.5-0.7-0.5-1.1c0-0.9,1.4-3.8,2.5-5.6
						c0.7-0.1,1.4-0.2,2.1-0.2c0.5,0,1,0.1,1.3,0.5c0.2,0.2,0.4,0.5,0.4,0.7c-1,0.2-2,0.4-3,0.5c-0.2,0.4-0.4,0.8-0.6,1.3
						c0.4-0.1,0.8-0.2,1.2-0.2c0.3,0,0.6,0.1,0.9,0.4c0.2,0.2,0.4,0.4,0.6,0.6c-0.7,0.3-1.4,0.7-2,0.7c-0.4,0-0.8-0.2-1.1-0.5
						c-0.2,0.6-0.5,1.2-0.7,1.8C274.2,118.9,274.7,118.8,275,118.8L275,118.8z M284,115.3c-0.1,2-1.6,5.4-4,5.4
						c-0.6,0-1.1-0.2-1.5-0.6c-0.6-0.5-0.9-1.2-0.9-1.9c0-1.9,1.7-4.7,3.3-4.7h0.1c0.4-0.2,0.8-0.3,1.2-0.4c0.5,0,0.9,0.2,1.2,0.5
						C283.8,114,284,114.4,284,115.3L284,115.3z M282.3,114.3c0-0.1,0-0.2,0-0.4c-0.7,0.3-1.2,1.2-1.8,2.5c-0.2-0.1-0.5-0.2-0.6-0.4
						c-0.4,1-0.6,2-0.6,3c0,0.2,0,0.4,0.1,0.6c0.1,0,0.1,0,0.2,0C281,119.7,282.3,116.1,282.3,114.3z M264.2,114.3
						c0,1.3-0.5,3.4-1.2,4.7c-0.1-0.5-0.1-0.9-0.1-1.4c-0.6-0.1-1,0.4-1,1.7c0,0.1,0,0.3,0,0.4c-0.1,0-0.2,0-0.2,0
						c-0.1,0-0.2,0-0.3,0c-0.1-0.2-0.1-0.4-0.1-0.6c0-1.7,1.2-4.6,3-5.2C264.2,114,264.2,114.1,264.2,114.3z M258.1,114.7
						c0,0.7-0.9,1.7-2.6,2.5c0.3-0.9,0.7-1.7,0.9-2.3C257,114.8,257.5,114.7,258.1,114.7z"/>
				</g>
			</mask>
			<g id="color_x2F_blanco_x2F_blanco" class="st174">
				<rect id="Rectangle-Copy-2_1_" x="231.7" y="104.2" class="st175" width="58.8" height="26.2"/>
			</g>
		</g>
	</g>
</g>
</svg>
