<?xml version="1.0" encoding="UTF-8" standalone="no"?>
<svg width="74px" height="74px" viewBox="0 0 74 74" version="1.1" xmlns="http://www.w3.org/2000/svg" xmlns:xlink="http://www.w3.org/1999/xlink">
    <!-- Generator: Sketch 45.1 (43504) - http://www.bohemiancoding.com/sketch -->
    <title>Group 5</title>
    <desc>Created with Sketch.</desc>
    <defs>
        <polygon id="path-1" points="0 73.9278049 73.9278049 73.9278049 73.9278049 0 0 0"></polygon>
    </defs>
    <g id="Calificación-entrega-de-pedido" stroke="none" stroke-width="1" fill="none" fill-rule="evenodd">
        <g id="Calificación-/-Calificación-buena-4-5" transform="translate(-261.000000, -172.000000)">
            <g id="Group-3" transform="translate(251.000000, 172.000000)">
                <g id="Group-5" transform="translate(10.000000, 0.000000)">
                    <circle id="Oval-Copy-2" fill="#3EDD8F" cx="37" cy="37" r="37"></circle>
                    <g id="Group-4">
                        <g id="Page-1">
                            <path d="M14.636463,62.2046858 L32.4445931,73.64295 C33.9268492,73.8237386 35.4327191,73.9278199 36.9638573,73.9278199 C57.3785321,73.9278199 73.9277598,57.3784419 73.9277598,36.9639175 C73.9277598,36.5330028 73.9098614,36.1066004 73.895272,35.6792955 L55.601028,15.7898402 L34.5934508,15.7898402 L29.7074955,26.2824988 L31.8861337,59.2601776 L14.636463,62.2046858 Z" id="Fill-3" fill-opacity="0.1" fill="#000000"></path>
                            <path d="M51.2906484,26.2824837 L51.2906484,62.3783902 L58.8571484,62.3783902 C59.4774248,62.3783902 59.911498,61.8821992 59.911498,61.3240407 L59.911498,26.2824837 L51.2906484,26.2824837 Z" id="Fill-6" fill="#03758A"></path>
                            <path d="M51.2906484,26.2824837 L28.4049451,26.2824837 L28.4049451,33.8489837 L30.8237825,33.8489837 C32.064185,33.8489837 33.0565671,34.8413659 33.0565671,36.0817683 L33.0565671,38.252435 C33.0565671,39.0587642 32.6224939,39.7408577 32.0022175,40.1131138 L32.3743232,40.6093049 C32.8083963,41.1674634 32.9945996,41.7877398 32.9945996,42.4699837 L32.9945996,61.1381382 C32.9945996,61.5722114 32.8705142,62.006435 32.7465793,62.3165732 L51.2286809,62.3165732 L51.2286809,26.2824837 L51.2906484,26.2824837 Z" id="Fill-8" fill="#129CAF"></path>
                            <polygon id="Fill-10" fill="#03758A" points="51.2906484 26.2824837 28.4049451 26.2824837 32.7464289 16.173061 55.6319817 16.173061"></polygon>
                            <polygon id="Fill-12" fill="#05344A" points="55.6320118 16.1730911 59.9734955 26.2825138 51.2906785 26.2825138"></polygon>
                            <mask id="mask-2" fill="white">
                                <use xlink:href="#path-1"></use>
                            </mask>
                            <g id="Clip-15"></g>
                            <polygon id="Fill-14" fill="#05344A" mask="url(#mask-2)" points="32.7465041 16.173061 55.6320569 16.173061 55.6320569 12.7619919 32.7465041 12.7619919"></polygon>
                            <path d="M39.8167679,34.6552829 C42.4542963,34.6552829 44.5923248,37.3487626 44.5923248,40.6712423 C44.5923248,43.993722 42.4542963,46.6872016 39.8167679,46.6872016 C37.1792394,46.6872016 35.041211,43.993722 35.041211,40.6712423 C35.041211,37.3487626 37.1792394,34.6552829 39.8167679,34.6552829" id="Fill-16" fill="#FFFFFF" mask="url(#mask-2)"></path>
                            <path d="M33.0565821,42.4698333 C33.0565821,41.7875894 32.8085618,41.1674634 32.4363057,40.6091545 L32.0642,40.1129634 C32.6844764,39.7408577 33.1185496,39.0586138 33.1185496,38.2522846 L33.1185496,36.0195 C33.1185496,34.7790976 32.1261675,33.7868659 30.885765,33.7868659 L28.4669276,33.7868659 L28.4669276,61.2620732 C28.4669276,61.8823496 28.9631187,62.3164228 29.5212772,62.3164228 L32.8084114,62.3164228 C32.9944642,61.9443171 33.0564317,61.5100935 33.0564317,61.1379878 L33.0565821,42.4698333 Z" id="Fill-17" fill="#03758A" mask="url(#mask-2)"></path>
                            <path d="M29.5214276,39.9270309 L15.6288301,39.9270309 L14.2023748,41.7255919 C14.016322,41.9116447 13.9543545,42.2217829 13.9543545,42.4698033 L13.9543545,61.1379577 C13.9543545,61.8202016 14.512513,62.3163927 15.1327894,62.3163927 L29.9556512,62.3163927 C30.6378951,62.3163927 31.1340862,61.7582341 31.1340862,61.1379577 L31.1340862,42.4698033 C31.1340862,42.2217829 31.0721187,41.9116447 30.8860659,41.7255919 L29.5214276,39.9270309 Z" id="Fill-18" fill="#FFBE6D" mask="url(#mask-2)"></path>
                            <polyline id="Fill-19" fill="#E29B44" mask="url(#mask-2)" points="15.6288301 39.9270309 15.6288301 37.3841081 29.5214276 37.3841081 29.5214276 39.9270309"></polyline>
                            <path d="M30.8238126,35.6475598 L14.3884427,35.6475598 C14.1404224,35.6475598 13.9543695,35.8336126 13.9543695,36.0816329 L13.9543695,38.2522996 C13.9543695,38.5003199 14.1404224,38.6863728 14.3884427,38.6863728 L30.823963,38.6863728 C31.0719833,38.6863728 31.2580362,38.5003199 31.2580362,38.2522996 L31.2580362,36.019515 C31.1959183,35.8336126 31.0719833,35.6475598 30.8238126,35.6475598" id="Fill-20" fill="#FF0005" mask="url(#mask-2)"></path>
                            <polygon id="Fill-21" fill="#B01D00" mask="url(#mask-2)" points="14.6365081 38.1285 15.1365081 38.1285 15.1365081 36.0817683 14.6365081 36.0817683"></polygon>
                            <polygon id="Fill-22" fill="#B01D00" mask="url(#mask-2)" points="15.4428374 38.1285 15.9428374 38.1285 15.9428374 36.0817683 15.4428374 36.0817683"></polygon>
                            <polygon id="Fill-23" fill="#B01D00" mask="url(#mask-2)" points="16.2490163 38.1285 16.7490163 38.1285 16.7490163 36.0817683 16.2490163 36.0817683"></polygon>
                            <polygon id="Fill-24" fill="#B01D00" mask="url(#mask-2)" points="17.117313 38.1285 17.617313 38.1285 17.617313 36.0817683 17.117313 36.0817683"></polygon>
                            <polygon id="Fill-25" fill="#B01D00" mask="url(#mask-2)" points="17.9236423 38.1285 18.4236423 38.1285 18.4236423 36.0817683 17.9236423 36.0817683"></polygon>
                            <polygon id="Fill-26" fill="#B01D00" mask="url(#mask-2)" points="18.7298211 38.1285 19.2298211 38.1285 19.2298211 36.0817683 18.7298211 36.0817683"></polygon>
                            <polygon id="Fill-27" fill="#B01D00" mask="url(#mask-2)" points="19.5361504 38.1285 20.0361504 38.1285 20.0361504 36.0817683 19.5361504 36.0817683"></polygon>
                            <polygon id="Fill-28" fill="#B01D00" mask="url(#mask-2)" points="20.4044472 38.1285 20.9044472 38.1285 20.9044472 36.0817683 20.4044472 36.0817683"></polygon>
                            <polygon id="Fill-29" fill="#B01D00" mask="url(#mask-2)" points="21.210626 38.1285 21.710626 38.1285 21.710626 36.0817683 21.210626 36.0817683"></polygon>
                            <polygon id="Fill-30" fill="#B01D00" mask="url(#mask-2)" points="22.0169553 38.1285 22.5169553 38.1285 22.5169553 36.0817683 22.0169553 36.0817683"></polygon>
                            <polygon id="Fill-31" fill="#B01D00" mask="url(#mask-2)" points="22.8232846 38.1285 23.3232846 38.1285 23.3232846 36.0817683 22.8232846 36.0817683"></polygon>
                            <polygon id="Fill-32" fill="#B01D00" mask="url(#mask-2)" points="23.6915813 38.1285 24.1915813 38.1285 24.1915813 36.0817683 23.6915813 36.0817683"></polygon>
                            <polygon id="Fill-33" fill="#B01D00" mask="url(#mask-2)" points="24.4977602 38.1285 24.9977602 38.1285 24.9977602 36.0817683 24.4977602 36.0817683"></polygon>
                            <polygon id="Fill-34" fill="#B01D00" mask="url(#mask-2)" points="25.3040894 38.1285 25.8040894 38.1285 25.8040894 36.0817683 25.3040894 36.0817683"></polygon>
                            <polygon id="Fill-35" fill="#B01D00" mask="url(#mask-2)" points="26.1102683 38.1285 26.6102683 38.1285 26.6102683 36.0817683 26.1102683 36.0817683"></polygon>
                            <polygon id="Fill-36" fill="#B01D00" mask="url(#mask-2)" points="26.978565 38.1285 27.478565 38.1285 27.478565 36.0817683 26.978565 36.0817683"></polygon>
                            <polygon id="Fill-37" fill="#B01D00" mask="url(#mask-2)" points="27.7848943 38.1285 28.2848943 38.1285 28.2848943 36.0817683 27.7848943 36.0817683"></polygon>
                            <polygon id="Fill-38" fill="#B01D00" mask="url(#mask-2)" points="28.5910732 38.1285 29.0910732 38.1285 29.0910732 36.0817683 28.5910732 36.0817683"></polygon>
                            <polygon id="Fill-39" fill="#B01D00" mask="url(#mask-2)" points="29.3974024 38.1285 29.8974024 38.1285 29.8974024 36.0817683 29.3974024 36.0817683"></polygon>
                            <polygon id="Fill-40" fill="#B01D00" mask="url(#mask-2)" points="30.2037317 38.1285 30.7037317 38.1285 30.7037317 36.0817683 30.2037317 36.0817683"></polygon>
                        </g>
                    </g>
                </g>
            </g>
        </g>
    </g>
</svg>