<?xml version="1.0" encoding="utf-8"?>
<!-- Generator: Adobe Illustrator 19.0.0, SVG Export Plug-In . SVG Version: 6.00 Build 0)  -->
<svg version="1.1" id="Layer_1" xmlns="http://www.w3.org/2000/svg" xmlns:xlink="http://www.w3.org/1999/xlink" x="0px" y="0px"
	 viewBox="-172 111.6 74 74" style="enable-background:new -172 111.6 74 74;" xml:space="preserve">
<style type="text/css">
	.st0{filter:url(#Adobe_OpacityMaskFilter);}
	.st1{fill:#FFFFFF;}
	.st2{mask:url(#mask-2);fill:#606060;}
	.st3{filter:url(#Adobe_OpacityMaskFilter_1_);}
	.st4{mask:url(#mask-4);fill:#010202;fill-opacity:0.1;}
	.st5{fill:#D8D8D8;}
	.st6{fill:#A5A5A5;}
	.st7{fill:#7F7F7F;}
</style>
<title>Group 2</title>
<desc>Created with Sketch.</desc>
<g id="Calificación-entrega-de-pedido">
	<g id="Calificación-_x2F_-Calificación-buena-4-5" transform="translate(-154.000000, -172.000000)">
		<g id="Group-3_1_" transform="translate(142.000000, 172.000000)">
			<g id="Group-2" transform="translate(12.000000, 0.000000)">
				<g id="Page-1">
					<g id="Group-3" transform="translate(0.423587, 0.102128)">
						<g id="Clip-2">
						</g>
						<defs>
							<filter id="Adobe_OpacityMaskFilter" filterUnits="userSpaceOnUse" x="-172" y="111.7" width="73.4" height="73.2">
								<feColorMatrix  type="matrix" values="1 0 0 0 0  0 1 0 0 0  0 0 1 0 0  0 0 0 1 0"/>
							</filter>
						</defs>
						<mask maskUnits="userSpaceOnUse" x="-172" y="111.7" width="73.4" height="73.2" id="mask-2">
							<g class="st0">
								<polygon id="path-1" class="st1" points="-172,111.7 -98.6,111.7 -98.6,148.3 -98.6,184.9 -172,184.9 								"/>
							</g>
						</mask>
						<path id="Fill-1" class="st2" d="M-135.3,111.7c-20.3,0-36.7,16.4-36.7,36.6s16.4,36.6,36.7,36.6s36.7-16.4,36.7-36.6
							S-115,111.7-135.3,111.7"/>
					</g>
					<g id="Group-6" transform="translate(0.583104, 40.189774)">
						<g id="Clip-5">
						</g>
						<defs>
							<filter id="Adobe_OpacityMaskFilter_1_" filterUnits="userSpaceOnUse" x="-172" y="111.8" width="57.1" height="33.1">
								<feColorMatrix  type="matrix" values="1 0 0 0 0  0 1 0 0 0  0 0 1 0 0  0 0 0 1 0"/>
							</filter>
						</defs>
						<mask maskUnits="userSpaceOnUse" x="-172" y="111.8" width="57.1" height="33.1" id="mask-4">
							<g class="st3">
								<path id="path-3" class="st1" d="M-172,111.8c1.8,18.6,17.5,33.1,36.5,33.1c7.6,0,14.7-2.3,20.5-6.2v-26.8H-172z"/>
							</g>
						</mask>
						<polygon id="Fill-4" class="st4" points="-156.3,111.8 -172,125.4 -172,144.8 -139.4,144.8 -114.9,123.6 						"/>
					</g>
					<g id="Group-15" transform="translate(12.000000, 17.102128)">
						<path id="Fill-7" class="st1" d="M-156.4,129.3v18.4h3.1c1.4,0,2.7,0.3,4,1l1,0.5c1.2,0.6,2.6,1,4,1h15.5
							c3.6,0,6.5-2.9,6.5-6.5v-12.1c0-3.6-2.9-6.5-6.5-6.5h-9.6V119c0-3.6-2.9-6.5-6.5-6.5c-0.8,0-1.4,0.6-1.4,1.4v9.2
							c0,1.2-0.5,2.4-1.5,3.2l-2.1,1.8c-0.8,0.7-1.8,1.1-2.9,1.1H-156.4z"/>
						<path id="Fill-9" class="st5" d="M-128.9,146.3h-15.5c-1.4,0-2.7-0.3-4-1l-1-0.5c-1.2-0.6-2.6-1-4-1h-3.1v3.8h3.1
							c1.4,0,2.7,0.3,4,1l1,0.5c1.2,0.6,2.6,1,4,1h15.5c3.6,0,6.5-2.9,6.5-6.5v-3.8C-122.4,143.4-125.3,146.3-128.9,146.3"/>
						<polygon id="Fill-11" class="st6" points="-171.3,150.1 -156.4,150.1 -156.4,125.5 -171.3,125.5 						"/>
						<polygon id="Fill-13" class="st7" points="-171.3,150.1 -156.4,150.1 -156.4,146.3 -171.3,146.3 						"/>
						<path id="Fill-14" class="st1" d="M-166.1,144.1c0,1.2,1,2.2,2.2,2.2s2.2-1,2.2-2.2c0-1.2-1-2.2-2.2-2.2
							S-166.1,142.8-166.1,144.1z"/>
					</g>
				</g>
			</g>
		</g>
	</g>
</g>
</svg>
