<?xml version="1.0" encoding="UTF-8" standalone="no"?>
<svg width="21px" height="21px" viewBox="0 0 21 21" version="1.1" xmlns="http://www.w3.org/2000/svg" xmlns:xlink="http://www.w3.org/1999/xlink">
    <!-- Generator: Sketch 48.2 (47327) - http://www.bohemiancoding.com/sketch -->
    <title>box checked</title>
    <desc>Created with Sketch.</desc>
    <defs></defs>
    <g id="Calificación-web-/-2-Mala-Calificación-/-6-Aparece-comentario" stroke="none" stroke-width="1" fill="none" fill-rule="evenodd" transform="translate(-130.000000, -460.000000)">
        <g id="Group-2" transform="translate(100.000000, 161.000000)">
            <g id="Group-7" transform="translate(0.000000, 256.000000)">
                <g id="Group-3-Copy" transform="translate(30.000000, 31.000000)">
                    <g id="box-checked" transform="translate(0.000000, 12.000000)">
                        <g id="Group-4">
                            <rect id="Rectangle" fill="#3A86FF" x="0" y="0" width="21" height="21" rx="4"></rect>
                            <g id="Stroke-3541" transform="translate(5.000000, 6.000000)" fill="#FFFFFF">
                                <polygon points="10.173913 0 3.65217391 6.41025641 1.82608696 4.61538462 0 6.41025641 3.65217391 10 12 1.79487179"></polygon>
                            </g>
                        </g>
                    </g>
                </g>
            </g>
        </g>
    </g>
</svg>