<?xml version="1.0" encoding="UTF-8" standalone="no"?>
<svg width="21px" height="21px" viewBox="0 0 21 21" version="1.1" xmlns="http://www.w3.org/2000/svg" xmlns:xlink="http://www.w3.org/1999/xlink">
    <!-- Generator: Sketch 48.2 (47327) - http://www.bohemiancoding.com/sketch -->
    <title>Rectangle</title>
    <desc>Created with Sketch.</desc>
    <defs>
        <rect id="path-1" x="0" y="0" width="21" height="21" rx="4"></rect>
    </defs>
    <g id="Calificación-web-/-2-Mala-Calificación-/-1-Inicio" stroke="none" stroke-width="1" fill="none" fill-rule="evenodd" transform="translate(-130.000000, -441.000000)">
        <g id="Group-2" transform="translate(100.000000, 161.000000)">
            <g id="Group-7" transform="translate(0.000000, 237.000000)">
                <g id="Group-3-Copy" transform="translate(30.000000, 30.000000)">
                    <g id="Rectangle" transform="translate(0.000000, 13.000000)">
                        <g>
                            <use fill="#FFFFFF" fill-rule="evenodd" xlink:href="#path-1"></use>
                            <rect stroke="#B5B5BD" stroke-width="1" x="0.5" y="0.5" width="20" height="20" rx="4"></rect>
                        </g>
                    </g>
                </g>
            </g>
        </g>
    </g>
</svg>