<?xml version="1.0" encoding="UTF-8"?>
<svg width="282px" height="57px" viewBox="0 0 282 57" version="1.1" xmlns="http://www.w3.org/2000/svg" xmlns:xlink="http://www.w3.org/1999/xlink">
    <!-- Generator: Sketch 50.2 (55047) - http://www.bohemiancoding.com/sketch -->
    <title>logo-merqueo/nuevo-logo/logo-horizontal-blanco</title>
    <desc>Created with Sketch.</desc>
    <defs>
        <path d="M123,13.41 C118.268217,19.0095725 113.90249,24.9084814 109.93,31.07 C110.93,24.95 111.81,18.42 111.81,17.07 C111.81,14.29 109.81,13.66 105.81,13.66 C104.90181,13.6351108 103.993513,13.7054955 103.1,13.87 C99.8500523,19.1178498 96.9471772,24.5728498 94.41,30.2 C92.41,34.79 91.21,37.99 91.21,40 C91.21,42.65 93.21,43.34 97.05,43.76 C99.5277058,36.2907609 102.453001,28.977522 105.81,21.86 C104.7,28.67 102.96,36.86 102.96,39.17 C102.96,42.3 105.39,43.34 109.15,43.76 C112.2,36.88 120.2,26.03 124.65,20.26 C122.84,23.6 120.96,27.14 119.65,30.2 C117.65,34.79 116.45,37.99 116.45,40 C116.45,42.65 118.45,43.34 122.29,43.76 C125.495232,33.8960204 129.302378,24.2378922 133.69,14.84 C131.92,13.06 125.25,12.79 123,13.41 Z M147,38.71 C145.575133,37.5901137 143.812244,36.9872057 142,37 C140.89,37 138.48,37.07 136.12,37.21 C137.03,34.71 138,32.21 138.98,29.76 C140.097709,31.1237204 141.766767,31.9160644 143.53,31.92 C145.9,31.92 148.95,30.25 151.8,29.14 C151.207636,28.1039038 150.403481,27.2043402 149.44,26.5 C148.449717,25.5486789 147.133145,25.0120331 145.76,25 C143.98045,25.1032904 142.222127,25.4394898 140.53,26 C141.35,24.06 142.16,22.22 142.92,20.58 C147.104402,20.077931 151.255114,19.3265954 155.35,18.33 C155.008198,17.1400554 154.359912,16.0607288 153.47,15.2 C152.10701,13.7117523 150.130881,12.9397692 148.12,13.11 C145.211113,13.1524251 142.308172,13.3862639 139.43,13.81 C134.91,21.18 129.28,33.41 129.14,36.96 C129.235188,38.7601811 130.066987,40.4418617 131.44,41.61 C133.25,43.35 134.98,44.39 137.21,44.39 C139.15,44.39 146.31,42.45 149.16,40.92 C148.550874,40.0626063 147.800135,39.3152486 146.94,38.71 L147,38.71 Z M176.63,20.23 C176.401252,18.8022643 175.873019,17.4390808 175.08,16.23 C173.76,14.23 171.67,13.17 168.27,13.17 C165.97,13.17 161.04,13.59 157.43,13.87 C157.487499,16.3258117 158.020673,18.7471716 159,21 C157.31,24.12 155.73,27.28 154.45,30.19 C152.45,34.78 151.25,37.98 151.25,39.99 C151.25,42.64 153.25,43.33 157.09,43.75 C158.09,40.42 159.3,36.96 160.53,33.63 C161.89,39.03 166.07,43.75 169.04,43.75 C169.95,43.75 171.34,43.12 172.8,41.18 C173.684653,39.9939638 174.299026,38.6286917 174.6,37.18 C171.298985,36.604696 168.200446,35.1931394 165.6,33.08 C172.76,31.62 178.32,28.91 178.32,23.63 C178.351246,22.2731724 177.692363,20.9930581 176.57,20.23 L176.63,20.23 Z M161.94,30.05 C163.34,26.46 164.72,23.14 165.94,20.42 C168.188828,20.0177803 170.465904,19.7937508 172.75,19.75 C172.58,22.57 168.76,26.9 161.88,30.05 L161.94,30.05 Z M245.22,31.9 C247.58,31.9 250.64,30.23 253.49,29.12 C252.894272,28.0863321 252.090692,27.1874118 251.13,26.48 C250.116238,25.5237229 248.773608,24.9938315 247.38,25 C245.603551,25.1019693 243.848362,25.4382124 242.16,26 C242.99,24.06 243.79,22.24 244.54,20.61 C248.734686,20.105816 252.895452,19.3511345 257,18.35 C256.6641,17.1597976 256.018879,16.0798286 255.13,15.22 C253.764792,13.7288367 251.784271,12.9565811 249.77,13.13 C246.864435,13.1724878 243.964824,13.4063274 241.09,13.83 C236.57,21.2 230.94,33.43 230.8,36.98 C230.891481,38.778941 231.719758,40.4608144 233.09,41.63 C234.9,43.37 236.64,44.41 238.86,44.41 C240.81,44.41 247.97,42.47 250.86,40.94 C250.248145,40.0758888 249.494111,39.3218547 248.63,38.71 C247.205133,37.5901137 245.442244,36.9872057 243.63,37 C242.52,37 240.1,37.07 237.74,37.21 C238.65,34.71 239.63,32.21 240.61,29.76 C241.72981,31.1185316 243.399441,31.9038088 245.16,31.9 L245.22,31.9 Z M278.65,14.9 C277.287054,13.5338166 275.439755,12.761114 273.51,12.75 C271.660383,12.7736456 269.84963,13.2841055 268.26,14.23 C268.086805,14.2202164 267.913195,14.2202164 267.74,14.23 C261.13,14.23 254.11,26.11 254.11,33.97 C254.067368,37.1211016 255.512612,40.1079405 258.01,42.03 C259.792504,43.5967232 262.097329,44.4387337 264.47,44.39 C274.47,44.39 280.88,30.49 281.22,22.08 C281.3,18.55 280.47,16.61 278.59,14.94 L278.65,14.9 Z M262.53,40.52 C262.267361,40.5208647 262.005541,40.4906548 261.75,40.43 C261.393396,39.5799815 261.232757,38.660579 261.28,37.74 C261.389162,33.4324977 262.312048,29.1845065 264,25.22 C264.753738,25.9819475 265.651028,26.5869385 266.64,27 C268.84,21.59 271.15,17.75 273.99,16.38 C274.102143,16.8989069 274.152493,17.4292605 274.14,17.96 C274.14,25.58 268.51,40.52 262.53,40.52 Z M205.61,22.1 C205.74,18.55 204.91,16.68 203.03,14.94 C201.487906,13.4996435 199.439193,12.7268835 197.33,12.79 C185.1,12.79 178.5,26.48 178.5,33.99 C178.454989,37.1393559 179.896371,40.1258687 182.39,42.05 C184.173511,43.6150258 186.477653,44.4567869 188.85,44.41 L189.33,44.41 C190.94,49.12 194.33,51.3 196.71,51.3 C198.03,51.3 199.42,50.68 200.88,48.73 C201.765987,47.543536 202.383569,46.1787133 202.69,44.73 C199.26,44.49 196.89,43.86 195.23,42.43 C201.51,38.23 205.34,28.55 205.61,22.1 Z M192.75,31.83 C190.24,31.41 188.51,33.43 188.44,38.83 C188.44,39.44 188.44,40.02 188.52,40.57 C188.188768,40.6172018 187.854578,40.6405951 187.52,40.64 C187.067985,40.6395355 186.617811,40.5824238 186.18,40.47 C185.827305,39.6225604 185.670079,38.7065453 185.72,37.79 C185.72,30.79 190.64,18.79 198.19,16.3 C198.325043,16.8493984 198.385585,17.4144629 198.37,17.98 C198.37,23.27 196.37,32.33 193.15,37.61 C192.834038,35.7003348 192.700104,33.764984 192.75,31.83 Z M227.22,13.34 C229.52,13.34 232.09,13.62 233.51,14.68 C232.034894,21.1723663 230.130713,27.5597239 227.81,33.8 C224.71,42.14 219.98,44.43 215.81,44.43 C213.354542,44.2868507 210.991413,43.4436197 209,42 C206.696178,40.576109 205.345037,38.0154476 205.47,35.31 C205.47,31.07 209.71,21.34 213.95,13.83 C216.13,13.83 218.74,14.15 220.13,15.15 C218.05,20.01 212.7,32.87 212.7,37.46 C212.595296,38.5155911 212.789339,39.5793615 213.26,40.53 C215.9,40.4 217.55,38.32 219.85,32.94 C221.73,28.63 224.3,21.89 227.22,13.34 Z M79.36,21.7 C81.69,22 82.47,22.92 82.47,25.21 C82.5862212,28.8875345 81.7782388,32.5354892 80.12,35.82 C77.448886,36.978187 74.6636447,37.852974 71.81,38.43 C69.6230978,42.3953834 66.4111906,45.7005395 62.51,48 L63.07,55.4 C61.0122542,55.8589317 58.908128,56.0770628 56.8,56.05 C52.86,56.05 50.8,54.54 49.69,50.82 C45.2609738,51.2231565 40.8031693,51.1930135 36.38,50.73 L36.74,55.4 C34.6756477,55.8599381 32.5647826,56.078072 30.45,56.05 C24.78,56.05 23.6,52.28 22.17,47.99 C14.66,43.86 10.05,35.48 10.05,25.86 C10.0461177,23.7827319 10.2843923,21.7120918 10.76,19.69 C8.73225567,19.6025766 6.84228462,18.6393481 5.58,17.05 C2.19,17.05 -6.59514828e-14,15.9 -6.59514828e-14,14.13 C-0.0047288833,13.4199455 0.378842229,12.7640389 1,12.42 C1.77008375,13.4471826 2.9863977,14.0423209 4.27,14.02 C3.68,10.58 5.52,7.38 8.68,7.38 C9.5544299,7.28496425 10.4265144,7.57846327 11.0655528,8.18285501 C11.7045912,8.78724675 12.0461963,9.64163484 12,10.52 C11.9269706,11.8839198 11.3907651,13.1821015 10.48,14.2 C9.01682909,13.3377142 8.28683063,11.6222178 8.68,9.97 C8.15,9.97 7.68,11.1 7.68,12.45 C7.657006,13.531788 8.08218492,14.5749685 8.85483484,15.3324685 C9.62748477,16.0899684 10.6788793,16.4944089 11.76,16.45 C15.85,6 26.69,-6.51589893e-15 41.48,0 C47.2017779,0.120542388 52.8751594,1.07733594 58.32,2.84 C59.735016,2.32011274 61.1811746,1.88927104 62.65,1.55 C65.2682377,1.07559033 67.9456942,1.02494488 70.58,1.4 C71.5540499,1.58495176 72.4635862,2.01904863 73.22,2.66 C71.36,4.89 72.15,7.54 68.69,10.73 C68.6140062,10.8719974 68.4996662,10.9898023 68.36,11.07 C70.22,14.5 73.01,20.77 79.36,21.7 Z M55.36,10.47 L56.54,8 C52.0835731,5.97188242 47.2359443,4.94773548 42.34,5 C37.4440557,4.94773548 32.5964269,5.97188242 28.14,8 L29.36,10.47 C37.6664962,6.93645942 47.0535038,6.93645942 55.36,10.47 Z M64.44,24.09 L64.42,24.09 C65.9272807,24.0638715 67.1474603,22.8569068 67.19,21.35 C67.2008932,20.7649931 66.9739908,20.2005943 66.5612002,19.7859189 C66.1484096,19.3712434 65.5850505,19.1417721 65,19.15 C63.5003666,19.1811602 62.2875473,20.3807967 62.24,21.88 C62.2233824,22.4693196 62.4494916,23.0396081 62.8654227,23.4574298 C63.2813539,23.8752516 63.8506111,24.1039448 64.44,24.09 Z" id="path-1"></path>
    </defs>
    <g id="logo-merqueo/nuevo-logo/logo-horizontal-blanco" stroke="none" stroke-width="1" fill="none" fill-rule="evenodd">
        <g id="→-🖍️-color-logo">
            <mask id="mask-2" fill="white">
                <use xlink:href="#path-1"></use>
            </mask>
            <use id="forma-logo" fill="#FFFFFF" fill-rule="nonzero" xlink:href="#path-1"></use>
        </g>
    </g>
</svg>